0.6330061804555579	0.3447176464995635	0
0.4457244214050854	0.4221727833532877	0
0.32375613693317284	0.524665092687715	0
0.5074530505731023	0.4502205583727307	0
0.5522659443998492	0.5249778998925915	0
0.6048736263251497	0.49103839135486915	0
0.4867830532699615	0.2742713682333202	0
0.7156608643957197	0.4695246675074215	0
0.49673550412847	0.39459125799202754	0
0.3656656629266952	0.3930204667740991	0
0.5318449471355051	0.3222164822944318	0
0.528281793013661	0.3893020106645575	0
0.48755481307322934	0.3398316504891854	0
0.517428137265276	0.5058360676835342	0
0.40373108972694516	0.44148129841363926	0
0.3847219327637963	0.3858973265805038	0
0.5936143817755742	0.33695513690462153	0
0.5926648518389831	0.32723409574699536	0
0.4153722722429716	0.5732048235933288	0
0.5657971404501053	0.3126364116898869	0
0.565366537455794	0.43380952706474396	0
0.6501655899666978	0.4277787452774344	0
0.5731871244373525	0.5443258811806805	0
0.5773198201099623	0.5340657743918014	0
0.4092897433268706	0.4823863445606644	0
0.30462805358328393	0.5389858852790306	0
0.32118280747667427	0.6015373408831344	0
0.5469577031270688	0.31588438850817213	0
0.45315349720222653	0.38771868332833703	0
0.590341546375258	0.3319856232506677	0
0.41016749417100407	0.3708355454029961	0
0.4202932248813037	0.428058701144011	0
0.3603738175272134	0.6092261735053511	0
0.45793054431668834	0.426729171420028	0
0.5592263008103743	0.39389797025455353	0
0.4847086308520545	0.33871067021671075	0
0.44067779931531736	0.4201869145377988	0
0.5542142682303574	0.34830556243028565	0
0.40165015592298237	0.3806083228040795	0
0.40177859072892286	0.589429367307187	0
0.6297997298454379	0.509832853189226	0
0.6495010390408774	0.4921131571258377	0
0.5253058462572557	0.4021784442851132	0
0.38700257991399656	0.3966422979018758	0
0.627123225392444	0.2995293748208304	0
0.5007241115973309	0.5642492170047623	0
0.5761371736994819	0.3076804724462643	0
0.3811100269592145	0.629682349585592	0
0.4042951840193041	0.3755806258512301	0
0.6546924817970801	0.5212564026481895	0
0.37281884732466664	0.5396762194280843	0
0.49676468497973714	0.30966582956894817	0
0.48792788035423484	0.5835560951367479	0
0.6421461000850159	0.31394583734720316	0
0.5136291029919772	0.45424152485174285	0
0.5309655531524367	0.4663090112487941	0
0.380066160429385	0.5305453881986907	0
0.6753508472149092	0.37766859607772485	0
0.5306307618635487	0.46066816381343123	0
0.4952893218329807	0.5143320104521506	0
0.39723107389193424	0.4652218127200881	0
0.4368642815360426	0.37495405198668685	0
0.5636624910047061	0.2948068844053243	0
0.49005326718390885	0.446705808523828	0
0.681846518630954	0.44410617631356963	0
0.38894168425513564	0.45191082815840944	0
0.5253494556328947	0.5311340199115578	0
0.5930128347834146	0.5031995157385345	0
0.6784496244498437	0.3510246963150778	0
0.6338370323008836	0.3292093722104569	0
0.5581945197729135	0.3693043922194872	0
0.692531396397271	0.4436344583681371	0
0.4222331848012185	0.5840365938362604	0
0.38146041742148895	0.4045869434033731	0
0.29641511771024087	0.562110530797607	0
0.3910808154571538	0.4744572800905885	0
0.5705489006314386	0.5034905886295857	0
0.3244074230807521	0.42887716448309166	0
0.45142686078720284	0.5991352227775334	0
0.549470730057035	0.5681323993763835	0
0.6261543552833919	0.27564498341506427	0
0.6565827661733151	0.4914333524370469	0
0.6369852563192142	0.47255691545729206	0
0.3786768710629874	0.5543206017013599	0
0.42966135668583416	0.5260173501496563	0
0.6953233771410141	0.3870206816650855	0
0.4436106077828792	0.4909111783666784	0
0.6491021449404779	0.3414697176596041	0
0.6276633273073365	0.488341773765129	0
0.33567155047826513	0.46904890606336	0
0.6150623738965024	0.42212666358668394	0
0.6206267951821961	0.4013445846520688	0
0.543020515162373	0.44127693452494055	0
0.6562603549962948	0.30873996931703096	0
0.7554021878656201	0.3689423257057376	0
0.6095505459259727	0.4769910432536708	0
0.48215106008080666	0.2853517375235276	0
0.36201168385165083	0.3628985603077237	0
0.42239216207389363	0.3945137231120578	0
0.30158675678986124	0.4223312182531159	0
0.7837665576699688	0.94162085892447	1
0.8735008721364678	0.8157654430430263	1
0.8865511550394066	0.8811137367100284	1
0.9556054980426559	0.9563940419546768	1
0.8488836501404233	0.9181574069539079	1
0.8795567999175857	0.9384665054260767	1
0.8447719785059057	0.915655750186978	1
0.9643846225347029	0.9827571148330533	1
0.893568352020701	0.8971096714903676	1
0.9454761770476674	0.8542502314874258	1
0.9369522538773059	0.9149141051196154	1
0.8782531464115819	0.9711367316561661	1
0.9254977921138866	0.894319441501697	1
0.8193905922807813	0.9991891052016171	1
0.8318615704231772	0.8828253576041335	1
0.8455339414425065	0.9309939105831906	1
0.9072566882568833	0.9319648634831115	1
0.904568115642349	0.9080894565558657	1
0.8853983038061677	0.8356780515957188	1
0.9147523244457476	0.9014173196154113	1
0.8162811230305295	0.9342800780086221	1
0.9349006491144303	0.8975442921575393	1
0.9893449311398949	0.9552411057925311	1
0.95594997263966	0.9995106152417351	1
0.8878300117323438	0.8823926774597284	1
0.8697997227857971	0.900939795421121	1
0.9665471294557791	0.9537994412458285	1
0.9251217877849892	0.9646125940705924	1
0.8244843584918309	0.917206226696266	1
0.9198783865355817	0.9240213335250153	1
0.7740161366513096	0.9330600405398533	1
0.8365685078580601	0.9655247322442393	1
0.9305808566373212	0.9306466302239104	1
0.9844906850344817	0.9031051364053223	1
0.9477123659431488	0.8045283711729994	1
0.9426389676357101	0.8168705558939586	1
0.8318900222462718	0.9643918800751947	1
0.9544188727137255	0.9100502752731265	1
0.9605344750665821	0.9995871275449338	1
0.8670471179243956	0.8274045224693205	1
0.965511608416666	0.8801709505867691	1
0.9011645754852556	0.9469221359660572	1
0.9490412679469784	0.8616405526055649	1
0.8037300377723754	0.9415593366064744	1
0.9388697597877583	0.888171373891119	1
0.7863199599896922	0.947041975994714	1
0.9271903495191864	0.8722767470338763	1
0.9505186147641108	0.8073463614576561	1
0.7916867696439781	0.8950456960027452	1
0.9366636177230061	0.9396500553238696	1
0.8166637609676892	0.8713634984180819	1
0.975891615666217	0.8302276458253989	1
0.9309503891666631	0.7837974820970408	1
0.9549681703513302	0.7774793213381106	1
0.973153735030879	0.9576286988716723	1
0.8177290185339757	0.8661601881343707	1
0.8111359593474439	0.8481913682356865	1
0.9951235405643383	0.9974977014320445	1
0.8156351559052379	0.957571093987981	1
0.9955005529625909	0.8970849264992641	1
0.8570578678207589	0.8526673237166847	1
0.8756165664411011	0.9176376413419866	1
0.993269843924734	0.9530736207608875	1
0.8596714230420427	0.860531342737975	1
0.8477151332832231	0.9075000457468709	1
0.9788420331000773	0.8402034968367175	1
0.9547363871520227	0.8102834108508643	1
0.9014758272963427	0.9491423195163434	1
0.9693193810500308	0.8645842693036273	1
0.9925195365598867	0.7727671589334941	1
0.8725809594540141	0.9074510892550812	1
0.8776994743678843	0.967460336625115	1
0.9192907464386342	0.9360571368852056	1
0.9961509986727859	0.7559544299905143	1
0.9001959875949104	0.9588862165314826	1
0.9300999200845845	0.8892073258638362	1
0.9382979761710721	0.8559631836770402	1
0.8995473962148915	0.9815552543501664	1
0.9432463993609225	0.9419181124098494	1
0.9642432097733229	0.8115835248915652	1
0.7579958292330584	0.9566793225401999	1
0.9070336822390458	0.906357742306303	1
0.9870209040012929	0.8492554878674835	1
0.886055185018007	0.8902263204410349	1
0.8569763877946972	0.8302506588611515	1
0.8724816128042656	0.9635824619970281	1
0.9287249537292372	0.969131417301597	1
0.76549612223363	0.9390466800679387	1
0.8808945224288407	0.9810460330677803	1
0.7229141238071507	0.9169059270686252	1
0.8739920381929119	0.9650608427548503	1
0.7690942635471957	0.9695749485951887	1
0.9102021779752779	0.9991566185704805	1
0.9706504277042552	0.7861770545141902	1
0.9196857168532486	0.8817316310943168	1
0.9952004327014197	0.9417860124516609	1
0.9025115180121835	0.836510111043942	1
0.919871158354488	0.888173942307334	1
0.7908130195665368	0.8847013654873446	1
0.914839319414007	0.8868501096509133	1
0.017744990613396627	0.1644364074668223	2
0.04238259467561645	0.12081600615990962	2
0.11309704944938315	0.185521502947818	2
0.05516770196677545	0.13418771355225345	2
0.05768603094754787	0.03546529684087851	2
0.008303575906057126	0.11315136204993737	2
0.12888343799540636	0.20778054568313475	2
0.06415762724028928	0.10706071746074086	2
0.12813705688079224	0.17119525763562116	2
0.13512760023277415	0.12461174970198696	2
0.08140020371532253	0.13429709567805992	2
0.11651004363656925	0.19304583116851004	2
0.1459325745177248	0.1005387921904487	2
0.06732756369094006	0.061830888184736255	2
0.1781166776063846	0.11065494550501576	2
0.04839618621830655	0.21481407901360117	2
0.08845992732542574	0.17407148861111443	2
0.07093637362037752	0.02247611034674013	2
0.17185575527517916	0.05683080602002222	2
0.04194471428626845	0.08067837107401465	2
0.1363975533331383	0.12555172937670467	2
0.10572338753630928	0.1044313734683624	2
0.03489477370552463	0.08733771805468604	2
0.10581499561687135	0.06293437138026559	2
0.18316993757832156	0.06336851860559245	2
0.025920720157177835	0.12349480451816142	2
0.06063007305721113	0.07122464068236156	2
0.04143383481037888	0.17447966494289457	2
0.11447649637928836	0.06879760585487082	2
0.1876092126684612	0.21348351232924545	2
0.21331694910174737	0.13191481472075828	2
0.04249451174666519	0.1534737047772028	2
0.050808783640851174	0.17892933897089014	2
0.07843650295205207	0.006309895591666281	2
0.12594251198147033	0.056684986188634934	2
0.008075759615274514	0.08825859539957981	2
0.13770178358040952	0.20055806954583133	2
0.07533161924014609	0.12161738525142063	2
0.1534985300298518	0.032134969955997295	2
0.032382374923556334	0.023425612194402978	2
0.038287784660964164	0.05154121824668312	2
0.16317713251290578	0.14391355516367832	2
0.15628372260433065	0.045094517691059655	2
0.002755717180066064	0.04885258323391217	2
0.0688362396297465	0.12339076184975317	2
0.0939852534166834	0.11885095846526572	2
0.14793330595185372	0.11955490737374519	2
0.057687870674667185	0.017873670203310987	2
0.16306724812360063	0.08470974580262669	2
0.06571871666885443	0.14705792928755845	2
0.15012801790604213	0.03280189526312183	2
0.13119794748672176	0.1617974436714511	2
0.15611381776318434	0.01952027824399971	2
0.17482528507223782	0.11300555985270022	2
0.09254964562182044	0.12263032880122993	2
0.006754530020085414	0.07630791695199812	2
0.1209123969779794	0.1597873427322014	2
0.15195957138099325	0.12791156772546486	2
0.004751168968104791	0.10576296402399021	2
0.04393685001276881	0.04709568818317178	2
0.10496823429274571	0.045958393994525615	2
0.09039851171114832	0.057396976161525615	2
0.11792679118715899	0.04960571911636569	2
0.1011587508283931	0.08743216271684395	2
0.08095592222845016	0.11229493370811072	2
0.0347002506334082	0.05532955490710134	2
0.05495684767372644	0.0149226981652123	2
0.05917493592376988	0.05333909420883687	2
0.09229493419315193	0.11018824910986402	2
0.018910421762320717	0.17765880130808187	2
0.0904682497044369	0.054286499921228804	2
0.19455200302163167	0.13166623568916458	2
0.16815426665291688	0.08241160713968265	2
0.02963557793157201	0.16373812608536786	2
0.09882219473378584	0.08880363609046615	2
0.08662858148178643	0.19492917312821367	2
0.14957293573883534	0.12523188338286562	2
0.13204810550807689	0.021688872519834757	2
0.04298232300586602	0.14162305229843275	2
0.03767286362716704	0.15321969656882328	2
0.19444153534651742	0.016950995567380445	2
0.17460493143298228	0.18832020721501852	2
0.07577871183016904	0.11402972333307693	2
0.12187026270569523	0.1867402682558731	2
0.047222625226128634	0.16242789751812492	2
5.992769719499469E-4	0.03101936783793391	2
0.08032442079101765	0.047600924105181575	2
0.12599749070462996	0.1861459645680007	2
0.02948410867464979	0.17591444912630683	2
0.0029101297478638655	0.16177001836132054	2
0.14902794422976018	0.046902650633590004	2
0.1035063577014903	0.2290895974890511	2
0.08055980328818613	0.051161936016613674	2
0.04526683537547449	0.034372628174086484	2
0.03539490919008692	0.0790228464265984	2
0.18030100267431948	0.1668631384434568	2
0.13962517735213964	0.16045801883961097	2
0.12820075021888733	0.07423194148683454	2
4.5614027199836205E-4	0.004733611033261198	2
0.03828695359611034	0.10984954159237492	2
