DBIndex, ARI, -0.004925130640706442
DBIndex, MI, 7.261963669849626e-05
KMeans, ARI, -0.0034403970901068803
KMeans, MI, 0.001155093248376121
DBSCAN, ARI, 0.0
DBSCAN, MI, 2.5627412030519373e-15
Agglomerative, ARI, 0.005128629833718448
Agglomerative, MI, 0.007486476899453328
FuzzyCMeans, ARI, -0.004949492449751323
FuzzyCMeans, MI, -0.003575012996168702