1.0,0.0,0.0024283744430144555,0.5740740740740744,0.2337662337662338,0.22727272727272727,0.6666666666666667,0.6666666666666667,0.0,0.5,1.0,1.0,1.0,0.5,0.0,0.6153846153846154,0.6666666666666667,1.0,0.4230769230769231,0.059509918319719954,0.5,0.215,0.5,1.0,0.2748722938457796,0.0,0.0,1.0
0.0,0.0,0.0034135111202838048,0.7037037037037042,0.3766233766233767,0.13636363636363638,0.6666666666666667,0.0,0.6000000000000001,0.0,0.5,1.0,0.3333333333333333,0.5,0.0,0.6153846153846154,1.0,0.25,0.5192307692307692,0.9533255542590432,0.5,0.19,1.0,1.0,0.053709559717830216,0.0,0.0,1.0
1.0,0.0,0.0024770463780873497,0.5370370370370363,0.06493506493506496,0.1818181818181818,0.0,0.0,0.4000000000000001,0.0,0.5,0.6666666666666667,0.0,0.5,0.0,0.6153846153846154,0.0,0.0,0.19230769230769235,0.03967327887981331,0.5,0.215,0.0,1.0,0.0,0.0,0.0,0.0
0.0,1.0,0.9968206572883715,0.685185185185186,0.8701298701298703,0.8636363636363636,1.0,0.0,1.0000000000000002,0.5,0.25,1.0,1.0,0.0,0.5,0.6153846153846154,0.6666666666666667,1.0,0.4807692307692308,0.04550758459743291,1.0,0.52,0.5,0.0,0.053709559717830216,0.0,0.0,0.0
1.0,0.0,0.0024605438764961074,0.3518518518518512,0.4805194805194805,0.3068181818181819,0.6666666666666667,0.0,1.0000000000000002,0.5,0.5,0.6666666666666667,0.0,0.5,0.0,0.6153846153846154,1.0,1.0,0.9807692307692308,0.04784130688448075,0.5,0.215,0.5,1.0,0.10459742155193384,0.0,0.0,1.0
1.0,0.0,0.0020636482686055835,0.518518518518519,0.11688311688311687,0.13636363636363638,0.3333333333333333,0.0,0.4000000000000001,0.0,0.25,0.6666666666666667,0.3333333333333333,0.5,0.0,0.6153846153846154,0.6666666666666667,0.5,0.2692307692307692,0.03733955659276546,0.5,0.215,0.0,1.0,0.0,0.0,0.0,1.0
0.0,0.0,0.0017392383322613614,0.4629629629629628,0.11688311688311687,0.09090909090909091,0.0,0.0,0.0,0.0,0.5,0.6666666666666667,0.6666666666666667,0.0,0.0,0.6153846153846154,0.6666666666666667,1.0,0.2692307692307692,0.04317386231038507,0.5,0.215,0.0,0.0,0.07599124300656775,0.0,0.0,1.0
0.0,0.0,0.002325181584962921,0.518518518518519,0.19480519480519481,0.13636363636363638,0.6666666666666667,0.0,0.0,0.0,0.5,1.0,0.3333333333333333,0.5,0.0,0.6153846153846154,0.6666666666666667,0.75,0.4038461538461539,0.05834305717619605,0.5,0.215,0.5,0.0,0.053709559717830216,0.0,0.0,1.0
1.0,0.0,0.002417929821754178,0.518518518518519,0.32467532467532473,0.31818181818181823,0.6666666666666667,1.0,0.4000000000000001,0.0,0.75,1.0,1.0,0.5,0.0,0.6153846153846154,0.6666666666666667,1.0,0.2884615384615385,0.0338389731621937,0.5,0.215,1.0,0.0,0.0779615665288251,0.0,0.0,1.0
1.0,1.0,0.9987466454487668,0.5370370370370363,0.3896103896103897,0.13636363636363638,0.0,0.0,0.0,0.0,1.0,0.6666666666666667,0.0,0.5,0.0,0.6153846153846154,0.6666666666666667,1.0,0.3269230769230769,0.0338389731621937,0.0,0.21000000000000002,0.0,1.0,0.0,0.0,0.0,0.0
0.0,0.0,0.0021039645066702473,0.5,0.2337662337662338,0.04545454545454544,0.6666666666666667,0.6666666666666667,0.8,0.0,0.5,0.6666666666666667,0.0,0.5,0.0,0.3076923076923077,0.3333333333333333,1.0,0.4038461538461539,0.03150525087514586,0.5,0.35000000000000003,0.0,0.0,0.05166626125030406,0.0,0.0,0.0
1.0,0.0,0.001974242310617602,0.685185185185186,0.27272727272727276,0.5,0.3333333333333333,0.0,0.2,0.0,0.25,0.0,0.3333333333333333,0.0,0.0,0.6153846153846154,1.0,0.75,0.5192307692307692,0.05250875145857643,0.5,0.215,0.0,0.0,0.05135003648747263,0.0,0.0,1.0
0.0,0.0,0.0019959671228389764,0.3333333333333339,0.07792207792207795,0.04545454545454544,0.3333333333333333,0.0,0.0,0.0,0.5,0.6666666666666667,0.6666666666666667,1.0,0.0,0.6153846153846154,1.0,1.0,0.2692307692307692,0.04317386231038507,0.5,0.215,0.0,1.0,0.10031622476283143,0.0,0.0,1.0
1.0,1.0,0.9970128383195607,0.48148148148148184,0.4025974025974027,0.22727272727272727,0.0,0.0,0.2,0.0,0.0,0.6666666666666667,0.3333333333333333,1.0,0.0,0.9538461538461539,0.0,0.0,0.2692307692307692,0.03267211201866978,0.0,0.215,0.5,1.0,0.0,0.0,0.0,0.0
0.0,0.0,0.00343440036280436,0.518518518518519,0.29870129870129875,0.22727272727272727,0.6666666666666667,0.0,0.0,0.0,0.5,1.0,0.0,0.5,0.5,0.6153846153846154,1.0,0.75,0.44230769230769235,0.9066511085180864,0.0,0.19,0.0,0.0,0.0513743614692289,0.0,0.0,1.0
0.0,0.0,0.0024559482431415897,0.40740740740740744,0.42857142857142855,0.4545454545454545,0.6666666666666667,0.0,0.6000000000000001,0.0,1.0,0.6666666666666667,0.6666666666666667,0.5,1.0,0.5384615384615384,1.0,1.0,0.4230769230769231,0.04084014002333722,0.5,0.215,0.5,0.0,0.07801021649233764,0.0,0.0,1.0
0.0,1.0,0.9990787844048437,0.518518518518519,0.6363636363636365,0.31818181818181823,0.6666666666666667,0.6666666666666667,0.6000000000000001,0.5,0.75,1.0,0.6666666666666667,1.0,0.0,0.6153846153846154,1.0,1.0,0.5769230769230771,0.05250875145857643,1.0,0.46,0.5,1.0,0.034054974458769156,0.0,0.0,0.0
1.0,0.0,0.001705188866952867,0.3888888888888893,0.11688311688311687,0.1818181818181818,0.6666666666666667,0.0,0.0,0.0,0.5,0.6666666666666667,0.0,0.5,0.0,0.6153846153846154,1.0,1.0,0.2692307692307692,0.03733955659276546,0.5,0.215,0.0,1.0,0.0,0.0,0.0,1.0
0.0,0.0,0.9968356975429864,0.40740740740740744,0.2207792207792208,0.14772727272727273,0.0,0.0,0.2,0.0,0.25,0.6666666666666667,0.0,0.0,0.0,0.6153846153846154,0.3333333333333333,1.0,0.3269230769230769,0.04317386231038507,0.0,0.215,0.0,0.0,0.10228654828508879,0.0,0.0,0.0
1.0,0.0,0.002848039325252391,0.7407407407407405,0.5194805194805194,0.3068181818181819,1.0,0.6666666666666667,1.0000000000000002,0.0,0.5,0.6666666666666667,0.6666666666666667,0.5,0.0,0.6153846153846154,1.0,1.0,0.6153846153846154,0.06301050175029171,0.5,0.215,0.0,1.0,0.0,0.0,0.0,1.0
0.0,0.0,0.0024400724188259754,0.833333333333333,0.27272727272727276,0.5909090909090909,0.0,0.0,0.8,0.5,1.0,1.0,1.0,1.0,0.0,0.6153846153846154,1.0,0.75,0.44230769230769235,0.03267211201866978,0.5,0.215,0.0,0.0,0.05135003648747263,0.0,0.0,1.0
1.0,0.0,0.0022694073074330384,0.5555555555555554,0.11688311688311687,0.09090909090909091,0.0,0.0,0.0,0.0,0.0,0.6666666666666667,0.0,0.5,1.0,0.6923076923076924,1.0,0.5,0.5,0.04084014002333722,0.5,0.215,0.0,1.0,0.0,0.0,0.0,1.0
0.0,0.0,0.0006695002227837671,0.5925925925925934,0.07792207792207795,0.2954545454545454,0.3333333333333333,0.0,0.6000000000000001,0.0,0.25,0.6666666666666667,0.0,0.5,0.0,0.6153846153846154,0.0,1.0,0.4807692307692308,0.04550758459743291,0.5,0.215,0.0,0.0,0.07567501824373632,0.0,0.0,1.0
0.0,1.0,0.003451320649246012,0.5370370370370363,0.6493506493506493,0.5909090909090909,0.6666666666666667,0.6666666666666667,0.0,0.0,0.25,1.0,0.0,0.5,0.0,0.6153846153846154,1.0,1.0,0.5192307692307692,0.7782963827304551,0.5,0.215,0.0,0.0,0.07567501824373632,0.0,0.0,1.0
0.0,0.0,0.003178507141927564,0.5,0.19480519480519481,0.04545454545454544,0.6666666666666667,0.6666666666666667,0.4000000000000001,0.0,0.5,1.0,0.6666666666666667,1.0,0.5,0.15384615384615385,1.0,1.0,0.5384615384615385,0.7199533255542591,0.5,0.215,0.0,0.0,0.07567501824373632,0.0,0.0,1.0
1.0,0.0,0.0023065901591196314,0.44444444444444375,0.19480519480519481,0.38636363636363635,0.6666666666666667,0.0,0.0,0.0,0.5,0.6666666666666667,0.0,0.5,0.0,0.6153846153846154,1.0,1.0,0.2692307692307692,0.03733955659276546,0.5,0.215,0.0,1.0,0.0,0.0,0.0,1.0
0.0,0.0,0.002517153723726809,0.5370370370370363,0.27272727272727276,0.25,1.0,0.6666666666666667,0.4000000000000001,0.5,0.5,0.6666666666666667,0.6666666666666667,0.5,0.0,0.6153846153846154,0.6666666666666667,1.0,0.38461538461538464,0.04317386231038507,0.5,0.38,0.0,0.0,0.07567501824373632,0.0,0.0,0.0
0.0,0.0,0.002125898211316826,0.44444444444444375,0.11688311688311687,0.04545454545454544,0.6666666666666667,0.0,0.0,0.0,0.5,0.6666666666666667,0.3333333333333333,0.0,0.0,0.6153846153846154,0.0,0.5,0.2692307692307692,0.025670945157526256,0.5,0.12,0.0,1.0,0.1002675747993189,0.0,0.0,0.0
0.0,0.0,0.9945297340611423,0.518518518518519,0.11688311688311687,0.13636363636363638,0.6666666666666667,0.0,0.0,0.0,0.5,0.6666666666666667,0.0,0.5,0.0,0.6153846153846154,1.0,1.0,0.2692307692307692,0.03733955659276546,0.5,0.215,0.5,1.0,0.10459742155193384,0.0,0.0,1.0
1.0,0.0,0.0035384287905567274,0.4259259259259265,0.11688311688311687,0.13636363636363638,0.3333333333333333,0.0,0.0,0.0,0.0,0.0,0.0,0.0,0.0,0.6153846153846154,1.0,1.0,0.4230769230769231,0.8483080513418904,0.5,0.215,0.0,1.0,0.0,0.0,0.0,1.0
1.0,0.0,0.0022976077848357868,0.4259259259259265,0.42857142857142855,0.25,0.6666666666666667,0.6666666666666667,0.6000000000000001,0.5,1.0,1.0,1.0,1.0,0.5,0.46153846153846156,1.0,1.0,0.8269230769230771,0.04900816802800467,0.5,0.215,0.5,0.0,0.10228654828508879,0.0,0.0,1.0
1.0,0.0,0.002457828274968446,0.3333333333333339,0.5064935064935066,0.04545454545454544,0.6666666666666667,0.6666666666666667,0.6000000000000001,0.5,0.25,1.0,0.3333333333333333,0.5,1.0,0.7692307692307693,0.6666666666666667,0.5,0.5576923076923077,0.0571761960326721,1.0,0.7300000000000001,1.0,0.0,0.05368523473607395,0.0,0.0,0.0
0.0,0.0,0.0022875809484259185,0.3333333333333339,0.19480519480519481,0.13636363636363638,0.3333333333333333,0.0,0.0,0.0,0.5,0.6666666666666667,0.6666666666666667,0.5,0.0,0.6153846153846154,1.0,1.0,0.38461538461538464,0.03850641773628938,0.5,0.215,0.0,0.0,0.053733884699586475,0.0,0.0,1.0
0.0,0.0,0.002336879560774427,0.518518518518519,0.2207792207792208,0.22727272727272727,0.0,0.0,0.0,0.0,0.5,0.0,0.0,0.5,0.0,0.6153846153846154,1.0,0.75,0.5,0.061843640606767794,0.5,0.65,0.0,0.0,0.053709559717830216,0.0,0.0,0.0
0.0,0.0,0.002364662253326766,0.518518518518519,0.45454545454545453,0.25,0.6666666666666667,0.6666666666666667,0.6000000000000001,0.5,1.0,1.0,1.0,1.0,1.0,0.6153846153846154,1.0,0.75,0.5576923076923077,0.03850641773628938,0.5,0.215,0.0,0.0,0.02734127949404038,0.0,0.0,1.0
1.0,0.0,0.0021591121069245156,0.518518518518519,0.4805194805194805,0.1818181818181818,1.0,0.6666666666666667,0.4000000000000001,0.5,0.75,1.0,0.6666666666666667,0.5,1.0,0.6153846153846154,1.0,0.25,0.9615384615384617,0.059509918319719954,0.5,0.215,1.0,0.0,0.17297494526879106,0.0,0.0,1.0
1.0,0.0,0.0023013678484894856,0.5370370370370363,0.5324675324675325,0.09090909090909091,0.6666666666666667,0.6666666666666667,0.8,0.5,0.5,0.6666666666666667,0.0,0.0,0.5,0.6153846153846154,1.0,1.0,0.5384615384615385,0.03150525087514586,0.5,0.09,1.0,1.0,0.12661153004135248,0.0,0.0,0.0
0.0,0.0,0.0032108854678344345,0.44444444444444375,0.27272727272727276,0.13636363636363638,0.6666666666666667,0.6666666666666667,0.0,0.0,1.0,0.6666666666666667,0.0,0.5,0.0,0.6153846153846154,0.0,0.0,0.6346153846153848,0.8949824970828472,0.0,0.19,0.0,0.0,0.07567501824373632,0.0,0.0,1.0
1.0,0.0,0.002197548313162337,0.5925925925925934,0.14285714285714285,0.13636363636363638,0.0,0.0,0.0,0.0,0.5,0.6666666666666667,0.3333333333333333,0.0,0.0,0.6153846153846154,0.0,0.5,0.17307692307692307,0.03850641773628938,0.0,0.49,0.0,1.0,0.0,0.0,0.0,0.0
0.0,1.0,0.9941050557606996,0.7037037037037042,0.7532467532467533,0.9999999999999999,0.6666666666666667,0.0,0.0,0.0,0.5,0.6666666666666667,0.0,0.5,0.0,0.6153846153846154,1.0,1.0,0.2692307692307692,0.03733955659276546,0.5,0.215,0.5,0.0,0.051398686450985165,0.0,0.0,1.0
0.0,0.0,0.002302412310615509,0.518518518518519,0.3766233766233767,0.13636363636363638,0.6666666666666667,0.6666666666666667,1.0000000000000002,0.5,1.0,0.6666666666666667,0.6666666666666667,0.0,1.0,0.6153846153846154,1.0,1.0,0.7692307692307694,0.03733955659276546,1.0,0.215,0.5,0.0,0.10228654828508879,0.0,0.0,1.0
1.0,1.0,0.9963694496499276,0.666666666666667,0.7792207792207793,0.7272727272727273,0.6666666666666667,0.0,0.0,0.0,0.5,0.6666666666666667,0.0,0.5,0.0,0.6153846153846154,1.0,1.0,0.4615384615384615,0.060676779463243874,0.5,0.0,0.0,0.0,0.2286548285088786,0.0,0.0,0.0
1.0,0.0,0.002470152928055566,0.48148148148148184,0.19480519480519481,0.04545454545454544,0.6666666666666667,0.0,0.4000000000000001,0.0,0.5,0.6666666666666667,0.0,0.0,0.0,0.6153846153846154,0.3333333333333333,0.25,0.4615384615384615,0.04317386231038507,0.5,0.215,0.0,1.0,0.07567501824373632,0.0,0.0,1.0
0.0,0.0,0.003257259586230063,0.518518518518519,0.5844155844155845,0.13636363636363638,0.6666666666666667,1.0,0.6000000000000001,0.0,0.75,1.0,1.0,0.0,0.0,0.6153846153846154,1.0,1.0,0.5576923076923077,0.7432905484247374,0.5,0.19,1.0,0.0,0.0779615665288251,0.0,0.0,1.0
0.0,0.0,0.003536757651155076,0.0,0.7142857142857144,0.1818181818181818,0.6666666666666667,0.6666666666666667,0.6000000000000001,0.5,0.75,1.0,0.0,0.5,0.0,0.6153846153846154,1.0,1.0,0.653846153846154,0.7666277712952159,1.0,0.19,1.0,0.0,0.0779615665288251,0.0,0.0,1.0
1.0,0.0,0.00237113791850814,0.518518518518519,0.5844155844155845,0.13636363636363638,1.0,0.6666666666666667,0.6000000000000001,0.5,1.0,1.0,1.0,0.0,0.0,0.6153846153846154,1.0,1.0,0.7115384615384617,0.03733955659276546,1.0,0.215,0.5,0.0,0.0779615665288251,0.0,0.0,1.0
0.0,0.0,0.0023838803564456834,0.4629629629629628,0.19480519480519481,0.07954545454545456,0.6666666666666667,0.0,0.6000000000000001,0.5,1.0,1.0,1.0,0.5,0.5,0.6153846153846154,1.0,1.0,0.8076923076923077,0.04900816802800467,0.5,0.215,0.0,0.0,0.05606908294818779,0.0,0.0,0.0
1.0,0.0,0.0023698845639569116,0.3888888888888893,0.11688311688311687,0.09090909090909091,0.0,0.0,0.0,0.0,0.0,0.0,0.0,0.0,0.0,0.6153846153846154,0.0,1.0,0.2692307692307692,0.03733955659276546,0.5,0.215,0.0,1.0,0.0,0.0,0.0,1.0
0.0,0.0,0.0021754057160905393,0.6481481481481479,0.32467532467532473,0.40909090909090906,0.6666666666666667,0.6666666666666667,0.4000000000000001,0.5,0.25,0.6666666666666667,0.6666666666666667,0.5,0.5,0.9230769230769232,0.6666666666666667,0.0,0.5961538461538463,0.03733955659276546,1.0,0.215,0.5,0.0,0.17297494526879106,0.0,0.0,1.0
1.0,0.0,0.002332492819845114,0.3333333333333339,0.3506493506493507,0.4545454545454545,0.6666666666666667,0.6666666666666667,0.8,0.5,0.75,0.0,0.3333333333333333,0.0,0.5,0.6153846153846154,0.3333333333333333,0.0,0.9615384615384617,0.025670945157526256,0.5,0.39999999999999997,0.5,1.0,0.10459742155193384,0.0,0.0,0.0
1.0,0.0,0.0023583954805705964,0.5925925925925934,0.10389610389610393,0.13636363636363638,0.0,0.0,0.2,0.0,0.0,0.6666666666666667,0.3333333333333333,0.0,0.0,0.6153846153846154,1.0,0.25,0.5,0.0676779463243874,0.0,0.15000000000000002,0.0,1.0,0.07567501824373632,0.0,0.0,0.0
0.0,0.0,0.0019280770846471784,0.37037037037037024,0.3506493506493507,0.31818181818181823,0.0,0.0,0.4000000000000001,0.5,0.5,0.6666666666666667,0.3333333333333333,0.5,0.0,0.6153846153846154,1.0,1.0,0.2692307692307692,0.03733955659276546,1.0,0.215,0.5,0.0,0.17535879348090488,0.0,0.0,0.0
1.0,0.0,0.0022992789242374245,0.518518518518519,0.11688311688311687,0.13636363636363638,0.0,0.0,0.4000000000000001,0.0,0.0,0.6666666666666667,0.0,0.5,0.0,0.6153846153846154,0.3333333333333333,0.25,0.38461538461538464,0.05134189031505251,0.5,0.215,0.0,1.0,0.07567501824373632,0.0,0.0,1.0
1.0,0.0,0.0025209137873805076,0.5925925925925934,0.06493506493506496,0.13636363636363638,0.6666666666666667,0.0,0.0,0.0,0.5,0.6666666666666667,0.0,0.5,0.0,0.6153846153846154,1.0,1.0,0.3461538461538462,0.03617269544924155,0.5,0.215,0.0,1.0,0.07567501824373632,0.0,0.0,0.0
1.0,0.0,0.002294683290882907,0.9074074074074074,0.5454545454545454,0.31818181818181823,0.6666666666666667,0.6666666666666667,0.0,0.5,0.25,0.6666666666666667,0.6666666666666667,0.5,0.0,0.9230769230769232,0.0,1.0,0.653846153846154,0.056009334889148193,1.0,0.44,1.0,0.0,0.18000486499635127,0.0,0.0,0.0
0.0,1.0,0.9952393416295657,0.5925925925925934,0.8441558441558443,0.13636363636363638,0.6666666666666667,0.0,0.8,0.0,0.5,0.6666666666666667,1.0,1.0,0.0,0.6153846153846154,1.0,1.0,0.2884615384615385,0.03733955659276546,0.5,0.215,0.5,0.0,0.17297494526879106,0.0,0.0,0.0
0.0,0.0,0.0021716456524368405,0.518518518518519,0.11688311688311687,0.13636363636363638,0.6666666666666667,0.0,0.0,0.0,0.5,0.6666666666666667,0.0,0.5,0.0,0.6153846153846154,1.0,1.0,0.019230769230769218,0.03967327887981331,0.5,0.215,0.0,0.0,0.07569934322549259,0.0,0.0,1.0
0.0,0.0,0.0023320750349947045,0.518518518518519,0.2207792207792208,0.31818181818181823,0.3333333333333333,0.0,0.2,0.0,1.0,0.6666666666666667,0.6666666666666667,0.5,0.5,0.6153846153846154,1.0,1.0,0.36538461538461536,0.05134189031505251,0.5,0.215,0.5,0.0,0.07805886645585015,0.0,0.0,1.0
0.0,0.0,0.002051741400368859,0.518518518518519,0.11688311688311687,0.13636363636363638,1.0,0.6666666666666667,0.4000000000000001,0.0,1.0,1.0,0.6666666666666667,0.5,0.0,0.6153846153846154,1.0,0.75,0.5769230769230771,0.03033838973162195,1.0,0.215,0.5,0.0,0.0779615665288251,0.0,0.0,0.0
1.0,0.0,0.0021783302100434193,0.518518518518519,0.42857142857142855,0.13636363636363638,0.6666666666666667,0.6666666666666667,0.4000000000000001,0.5,1.0,1.0,1.0,0.0,0.5,0.6153846153846154,1.0,1.0,0.7115384615384617,0.03733955659276546,0.5,0.215,0.5,0.0,0.10228654828508879,0.0,0.0,1.0
1.0,0.0,0.002498771190308724,0.44444444444444375,0.11688311688311687,0.2727272727272727,0.0,0.0,0.4000000000000001,0.0,0.25,0.0,0.0,0.0,0.0,0.6153846153846154,1.0,1.0,0.2692307692307692,0.03967327887981331,0.5,0.215,0.0,1.0,0.05166626125030406,0.0,0.0,1.0
1.0,0.0,0.0019805090833737715,0.5740740740740744,0.19480519480519481,0.13636363636363638,0.3333333333333333,0.3333333333333333,0.0,0.0,0.0,0.3333333333333333,0.3333333333333333,0.5,0.0,0.6153846153846154,0.0,0.0,0.4038461538461539,0.05134189031505251,0.5,0.215,0.0,1.0,0.0,0.0,0.0,1.0
0.0,0.0,0.0021210936855371038,0.44444444444444375,0.3766233766233767,0.1590909090909091,0.3333333333333333,0.0,0.2,0.0,0.5,0.6666666666666667,0.0,0.5,0.0,0.6153846153846154,1.0,1.0,0.7884615384615385,0.05484247374562427,0.0,0.5900000000000001,0.5,0.0,0.0779615665288251,0.0,0.0,0.0
1.0,0.0,0.003304051489476101,0.518518518518519,0.6493506493506493,0.09090909090909091,1.0,0.6666666666666667,0.6000000000000001,0.5,0.25,1.0,1.0,0.0,0.0,0.6153846153846154,1.0,1.0,0.8076923076923077,0.9183197199533255,0.5,0.19,1.0,1.0,0.053733884699586475,0.19687807621994094,0.0,1.0
0.0,0.0,0.002337715130475246,0.666666666666667,0.2207792207792208,0.31818181818181823,0.6666666666666667,0.0,0.6000000000000001,0.5,0.5,0.6666666666666667,0.3333333333333333,0.0,0.5,0.9230769230769232,1.0,1.0,0.4038461538461539,0.04900816802800467,1.0,0.49,0.0,0.0,0.051398686450985165,0.0,0.0,0.0
0.0,0.0,0.0034277158051977813,0.518518518518519,0.19480519480519481,0.31818181818181823,0.6666666666666667,0.0,0.4000000000000001,0.0,0.5,0.6666666666666667,0.3333333333333333,0.0,0.0,0.6153846153846154,0.6666666666666667,0.75,0.057692307692307654,0.8016336056009334,0.5,0.09,0.0,0.0,0.053709559717830216,0.0,0.0,1.0
1.0,0.0,0.0034066176702520212,0.4629629629629628,0.27272727272727276,0.13636363636363638,0.0,0.0,0.8,0.5,0.5,0.6666666666666667,0.0,0.0,1.0,0.15384615384615385,0.6666666666666667,0.75,0.6730769230769231,0.8249708284714119,0.0,0.19,0.0,0.0,0.056482607638044274,0.0,0.0,1.0
1.0,0.0,0.0021839703055239745,0.5555555555555554,0.15584415584415584,0.1818181818181818,0.0,0.0,0.0,0.0,0.0,0.6666666666666667,0.0,0.5,0.0,0.6153846153846154,0.6666666666666667,0.25,0.5,0.04550758459743291,0.0,0.215,0.0,1.0,0.07567501824373632,0.0,0.0,0.0
1.0,0.0,0.0023606932972478623,0.518518518518519,0.14285714285714285,0.09090909090909091,0.0,0.0,0.4000000000000001,0.0,0.5,0.6666666666666667,0.0,0.5,1.0,0.6923076923076924,1.0,1.0,0.6153846153846154,0.04550758459743291,0.5,0.215,0.0,1.0,0.05166626125030406,0.0,0.0,1.0
1.0,0.0,0.0024649306174254343,0.48148148148148184,0.11688311688311687,0.04545454545454544,0.0,0.0,0.0,0.0,0.0,0.6666666666666667,0.0,0.0,0.0,0.6153846153846154,0.6666666666666667,0.25,0.36538461538461536,0.03500583430571762,0.5,0.39999999999999997,0.0,1.0,0.07567501824373632,0.0,0.0,0.0
1.0,0.0,0.002034194436651593,0.2962962962962967,0.19480519480519481,0.13636363636363638,0.6666666666666667,0.0,0.0,0.0,0.5,0.6666666666666667,0.6666666666666667,0.5,0.5,0.5384615384615384,1.0,0.75,0.38461538461538464,0.05017502917152859,0.5,0.215,1.0,0.0,0.053733884699586475,0.0,0.0,0.0
0.0,0.0,0.0022869542711503044,0.44444444444444375,0.11688311688311687,0.22727272727272727,0.0,0.0,0.0,0.0,0.0,0.3333333333333333,0.0,0.5,0.0,0.6153846153846154,0.0,0.0,0.44230769230769235,0.03033838973162195,0.5,0.6900000000000001,0.0,1.0,0.0,0.0,0.0,0.0
0.0,0.0,0.9986681018968895,0.4259259259259265,0.16883116883116883,0.13636363636363638,0.6666666666666667,0.0,0.0,0.0,0.5,0.6666666666666667,0.0,0.5,0.0,0.6153846153846154,1.0,1.0,0.2692307692307692,0.03733955659276546,0.5,0.215,0.5,0.0,0.051398686450985165,0.0,0.0,1.0
0.0,0.0,0.002087462005079005,0.5,0.14285714285714285,0.1818181818181818,0.0,0.0,0.8,0.0,0.75,0.6666666666666667,0.0,0.5,1.0,0.9230769230769232,0.0,1.0,0.5961538461538463,0.04900816802800467,0.5,0.25,0.5,0.0,0.0513743614692289,0.0,0.0,0.0
0.0,1.0,0.9973470661998896,0.518518518518519,0.11688311688311687,0.13636363636363638,0.6666666666666667,0.0,0.0,0.0,0.5,0.6666666666666667,0.0,0.5,0.0,0.6153846153846154,1.0,1.0,0.2692307692307692,0.018669778296382736,0.5,0.215,0.5,0.0,0.2705910970566772,0.0,0.0,1.0
0.0,1.0,0.0032620641120097854,0.7962962962962967,0.45454545454545453,0.13636363636363638,0.6666666666666667,0.6666666666666667,0.8,0.5,0.25,0.6666666666666667,0.0,0.5,0.0,0.6153846153846154,1.0,1.0,0.4807692307692308,0.6266044340723453,0.5,0.19,1.0,0.0,0.034054974458769156,0.0,0.0,1.0
0.0,0.0,0.0033713148503922846,0.40740740740740744,0.051948051948051965,0.13636363636363638,0.6666666666666667,0.6666666666666667,0.0,0.0,0.5,0.6666666666666667,0.3333333333333333,0.5,0.0,0.6153846153846154,0.6666666666666667,1.0,0.2692307692307692,0.7549591598599766,0.5,0.215,0.0,0.0,0.0779615665288251,0.0,0.0,1.0
1.0,0.0,0.003400142005070647,0.6111111111111116,0.14285714285714285,0.13636363636363638,0.3333333333333333,0.0,0.0,0.0,0.0,0.0,0.0,0.0,0.0,0.6153846153846154,0.0,0.0,0.19230769230769235,0.8599766627771295,0.5,0.215,0.0,1.0,0.0,0.0,0.0,1.0
0.0,0.0,0.002552038758736136,0.518518518518519,0.11688311688311687,0.13636363636363638,0.6666666666666667,0.6666666666666667,0.4000000000000001,1.0,1.0,0.6666666666666667,0.6666666666666667,1.0,0.5,0.6153846153846154,1.0,1.0,0.44230769230769235,0.03033838973162195,0.5,0.215,0.5,0.0,0.07358306981269765,0.0,0.0,1.0
0.0,0.0,0.001877316225322237,0.3888888888888893,0.42857142857142855,0.11363636363636365,0.0,0.6666666666666667,1.0000000000000002,0.5,0.5,1.0,0.3333333333333333,0.5,1.0,0.6153846153846154,1.0,0.75,0.8846153846153848,0.06534422403733957,1.0,0.215,0.0,0.0,0.053709559717830216,0.0,0.0,0.0
0.0,0.0,0.0018888053087085382,0.18518518518518512,0.44155844155844154,0.3068181818181819,0.6666666666666667,0.6666666666666667,0.6000000000000001,0.0,0.75,0.6666666666666667,0.3333333333333333,0.5,0.0,0.6153846153846154,1.0,0.75,0.4615384615384615,0.03617269544924155,1.0,0.35000000000000003,0.5,0.0,0.05363658477256142,0.0,0.0,0.0
0.0,0.0,0.003400768682346275,0.3518518518518512,0.06493506493506496,0.13636363636363638,0.6666666666666667,0.6666666666666667,0.0,0.0,0.25,0.6666666666666667,0.3333333333333333,1.0,0.0,0.6153846153846154,0.6666666666666667,1.0,0.24999999999999994,0.03733955659276546,1.0,0.19,0.0,0.0,0.07567501824373632,0.0,0.0,1.0
0.0,1.0,0.9968937696371936,0.5,0.45454545454545453,0.8181818181818182,0.6666666666666667,0.0,0.2,0.0,0.5,1.0,0.0,0.5,0.0,0.6153846153846154,0.0,1.0,0.24999999999999994,0.028004667444574097,0.5,0.215,0.0,0.0,0.07567501824373632,0.0,0.0,1.0
0.0,0.0,0.9946091131827206,0.48148148148148184,0.11688311688311687,0.1818181818181818,0.6666666666666667,0.6666666666666667,1.0000000000000002,0.5,1.0,0.6666666666666667,1.0,0.0,0.0,0.6153846153846154,1.0,1.0,0.8653846153846154,0.05250875145857643,0.5,0.215,0.5,0.0,0.0779615665288251,0.0,0.0,1.0
0.0,0.0,0.0023757335518626577,0.44444444444444375,0.19480519480519481,0.8181818181818182,0.0,0.6666666666666667,0.2,0.5,0.25,0.6666666666666667,0.6666666666666667,0.5,0.5,0.6923076923076924,1.0,1.0,0.3269230769230769,0.014002333722287048,0.5,0.215,0.0,0.0,0.12663585502310873,0.0,0.0,0.0
1.0,0.0,0.0022618871801256407,0.48148148148148184,0.15584415584415584,0.25,0.3333333333333333,0.6666666666666667,0.4000000000000001,1.0,0.5,0.0,0.3333333333333333,0.5,0.5,0.6153846153846154,1.0,0.75,0.4230769230769231,0.0338389731621937,0.5,0.215,0.0,1.0,0.009729992702505474,0.0,0.0,1.0
0.0,0.0,0.0022794341438429067,0.518518518518519,0.3766233766233767,0.36363636363636365,0.6666666666666667,0.6666666666666667,0.6000000000000001,0.5,1.0,1.0,0.6666666666666667,1.0,0.0,0.6153846153846154,1.0,1.0,0.5192307692307692,0.05134189031505251,1.0,0.12999999999999998,0.5,0.0,0.10228654828508879,0.0,0.0,0.0
1.0,0.0,0.0019907448122088445,0.518518518518519,0.06493506493506496,0.09090909090909091,0.6666666666666667,0.0,0.0,0.0,0.5,0.6666666666666667,0.0,0.5,0.0,0.6153846153846154,1.0,1.0,0.5192307692307692,0.04317386231038507,0.5,0.38,1.0,0.0,0.053709559717830216,0.0,0.0,0.0
1.0,0.0,0.0023452352577826574,0.666666666666667,0.2207792207792208,0.36363636363636365,0.0,0.0,0.8,0.0,0.5,0.6666666666666667,0.3333333333333333,0.5,0.0,0.6153846153846154,0.6666666666666667,0.5,0.36538461538461536,0.04900816802800467,0.5,0.21999999999999997,0.0,1.0,0.12162490878131842,0.0,0.0,0.0
1.0,0.0,0.003531326448099739,0.5370370370370363,0.07792207792207795,0.022727272727272735,0.0,0.0,0.0,0.0,0.0,0.0,0.0,0.5,0.0,0.6153846153846154,1.0,1.0,0.2884615384615385,0.6732788798133023,0.5,0.215,0.0,1.0,0.0,0.0,0.0,1.0
1.0,0.0,0.0032839978166563644,0.48148148148148184,0.14285714285714285,0.09090909090909091,0.6666666666666667,0.0,0.0,0.0,0.25,0.6666666666666667,0.0,0.5,1.0,0.0,0.0,0.0,0.5769230769230771,0.9649941656942823,0.5,0.215,0.0,0.0,0.056482607638044274,0.0,0.0,1.0
1.0,0.0,0.002294683290882907,0.9074074074074074,0.5454545454545454,0.31818181818181823,0.6666666666666667,0.6666666666666667,0.0,0.5,0.25,0.6666666666666667,0.6666666666666667,0.5,0.0,0.9230769230769232,0.0,1.0,0.653846153846154,0.056009334889148193,1.0,0.44,0.5,0.0,0.0779615665288251,0.0,0.0,0.0
1.0,0.0,0.0024597083067952885,0.6296296296296289,0.12987012987012986,0.13636363636363638,0.6666666666666667,0.0,0.0,0.0,0.0,0.0,0.0,0.5,0.0,0.6153846153846154,0.6666666666666667,0.0,0.36538461538461536,0.0338389731621937,0.5,0.215,0.0,1.0,0.0,0.0,0.0,1.0
1.0,0.0,0.0024720329598824226,0.518518518518519,0.11688311688311687,0.13636363636363638,0.6666666666666667,0.6666666666666667,0.0,0.0,1.0,0.6666666666666667,0.6666666666666667,0.0,0.0,0.6153846153846154,1.0,1.0,0.2884615384615385,0.03733955659276546,0.5,0.215,0.5,0.0,0.0779615665288251,0.0,0.0,1.0
1.0,0.0,0.0021417740356324544,0.3888888888888893,0.11688311688311687,0.25,1.0,0.0,0.4000000000000001,0.0,0.5,0.3333333333333333,0.0,0.0,0.0,0.6153846153846154,0.0,0.0,0.4807692307692308,0.061843640606767794,0.5,0.215,0.0,1.0,0.0,0.0,0.0,1.0
0.0,0.0,0.003484743437278892,0.3518518518518512,0.11688311688311687,0.13636363636363638,0.6666666666666667,0.0,0.2,0.0,0.5,0.6666666666666667,0.6666666666666667,0.5,0.0,0.6153846153846154,0.6666666666666667,1.0,0.3461538461538462,0.7666277712952159,0.5,0.215,0.0,0.0,0.0779615665288251,0.0,0.0,1.0
1.0,0.0,0.002473912991709265,0.518518518518519,0.3506493506493507,0.31818181818181823,0.6666666666666667,0.0,0.4000000000000001,0.0,0.5,0.6666666666666667,0.0,0.5,0.0,0.6153846153846154,0.6666666666666667,0.25,0.4038461538461539,0.060676779463243874,0.5,0.215,0.0,0.0,0.07567501824373632,0.0,0.0,1.0
0.0,0.0,0.0032731354105456772,0.5,0.3766233766233767,0.2727272727272727,0.6666666666666667,0.6666666666666667,0.6000000000000001,0.0,0.25,0.6666666666666667,0.6666666666666667,0.5,1.0,0.0,1.0,1.0,0.6153846153846154,0.661610268378063,0.5,0.215,1.0,1.0,0.0779615665288251,0.0,0.0,1.0
1.0,0.0,0.00327104648629363,0.4259259259259265,0.09090909090909094,0.36363636363636365,0.3333333333333333,0.0,0.4000000000000001,0.0,0.0,0.6666666666666667,0.3333333333333333,0.0,0.0,0.6153846153846154,0.0,1.0,0.3461538461538462,0.661610268378063,0.5,0.215,0.0,1.0,0.0,0.0,0.0,1.0
1.0,0.0,0.002407694092919105,0.7777777777777786,0.5064935064935066,0.48863636363636365,0.6666666666666667,0.6666666666666667,1.0000000000000002,0.5,0.25,1.0,0.6666666666666667,0.0,0.5,0.6153846153846154,0.6666666666666667,1.0,0.6923076923076923,0.05484247374562427,0.5,0.25,0.0,1.0,0.10459742155193384,0.0,0.0,0.0
0.0,0.0,0.003527775276871245,0.518518518518519,0.06493506493506496,0.09090909090909091,0.6666666666666667,0.6666666666666667,0.0,0.0,0.0,0.6666666666666667,0.0,0.5,0.0,0.6153846153846154,0.0,0.0,0.2115384615384615,0.7316219369894983,0.5,0.215,0.0,1.0,0.0,0.0,0.0,1.0
0.0,0.0,0.0034306402991506613,0.518518518518519,0.19480519480519481,0.13636363636363638,1.0,0.6666666666666667,0.6000000000000001,0.5,1.0,1.0,0.0,0.5,0.0,0.6153846153846154,1.0,1.0,0.2692307692307692,0.03733955659276546,0.5,0.215,1.0,0.0,0.0779615665288251,0.0,0.0,1.0
1.0,0.0,0.003438787103733673,0.5370370370370363,0.06493506493506496,0.09090909090909091,0.6666666666666667,0.0,0.0,0.0,0.25,0.6666666666666667,0.0,0.5,0.0,0.6153846153846154,1.0,1.0,0.2692307692307692,0.6266044340723453,0.5,0.215,0.0,1.0,0.0,0.0,0.0,1.0
0.0,1.0,0.9972551535327991,0.48148148148148184,0.7142857142857144,0.6818181818181818,0.0,0.0,0.0,0.0,0.5,0.6666666666666667,0.3333333333333333,0.5,0.0,0.6153846153846154,0.3333333333333333,0.0,0.30769230769230765,0.023337222870478416,0.5,0.215,0.0,0.0,0.17297494526879106,0.0,0.0,1.0
0.0,0.0,0.0018982054678427784,0.44444444444444375,0.14285714285714285,0.1818181818181818,0.0,0.6666666666666667,0.4000000000000001,0.0,0.75,1.0,0.0,0.5,1.0,0.7230769230769232,0.3333333333333333,1.0,0.4807692307692308,0.03850641773628938,0.0,0.36000000000000004,0.5,0.0,0.1313549014838239,0.0,0.0,1.0
0.0,0.0,0.0024868643220720132,0.518518518518519,0.25974025974025977,0.31818181818181823,0.0,0.0,0.4000000000000001,0.5,0.25,0.6666666666666667,0.3333333333333333,0.5,0.0,0.6153846153846154,1.0,1.0,0.24999999999999994,0.04667444574095683,0.5,0.215,0.0,0.0,0.7567501824373631,0.0,0.0,1.0
0.0,0.0,0.002129031597694911,0.5370370370370363,0.14285714285714285,0.9999999999999999,0.6666666666666667,0.6666666666666667,0.4000000000000001,0.0,0.5,0.6666666666666667,0.0,0.0,0.0,0.6153846153846154,0.0,1.0,0.38461538461538464,0.03267211201866978,0.5,0.215,0.0,0.0,0.07805886645585015,0.0,0.0,0.0
1.0,0.0,0.002357977695720187,0.3518518518518512,0.12987012987012986,0.2727272727272727,0.0,0.0,0.4000000000000001,0.0,0.0,0.6666666666666667,0.3333333333333333,0.5,0.0,0.6153846153846154,0.0,1.0,0.4038461538461539,0.04317386231038507,0.5,0.215,0.0,1.0,0.0,0.0,0.0,1.0
0.0,0.0,0.0031793427116283968,0.6111111111111116,0.19480519480519481,0.2727272727272727,1.0,0.6666666666666667,0.2,0.5,0.75,1.0,1.0,0.5,0.0,0.6153846153846154,1.0,1.0,0.5769230769230771,0.7082847141190198,1.0,0.19,1.0,0.0,0.0779615665288251,0.0,0.0,1.0
0.0,1.0,0.9982766374920542,0.5555555555555554,0.3506493506493507,0.36363636363636365,0.6666666666666667,0.6666666666666667,0.2,0.0,0.5,0.6666666666666667,0.6666666666666667,0.0,0.0,0.6153846153846154,1.0,1.0,0.24999999999999994,0.03850641773628938,0.5,0.26999999999999996,0.5,0.0,0.05363658477256142,0.0,0.0,0.0
0.0,0.0,0.0018942365117638749,0.518518518518519,0.25974025974025977,0.09090909090909091,0.6666666666666667,1.0,0.8,0.5,0.25,0.6666666666666667,0.3333333333333333,0.5,0.0,0.6153846153846154,1.0,1.0,0.7115384615384617,0.04900816802800467,0.5,0.215,0.5,0.0,0.0513743614692289,0.0,0.0,1.0
0.0,0.0,0.0031876984086366134,0.5370370370370363,0.06493506493506496,0.09090909090909091,0.6666666666666667,0.0,0.0,0.0,0.0,0.6666666666666667,0.3333333333333333,0.5,0.0,0.6153846153846154,1.0,1.0,0.2884615384615385,0.6382730455075846,0.0,0.19,0.0,0.0,0.07567501824373632,1.0,0.0,1.0
0.0,0.0,0.003444009414363819,0.518518518518519,0.06493506493506496,0.13636363636363638,0.3333333333333333,0.0,0.0,0.0,0.0,0.6666666666666667,0.0,0.0,0.0,0.6153846153846154,1.0,1.0,0.30769230769230765,0.6149358226371062,0.5,0.215,0.0,0.0,0.07567501824373632,0.0,0.0,1.0
0.0,0.0,0.0019754956651688305,0.25925925925925863,0.19480519480519481,0.22727272727272727,0.6666666666666667,0.0,0.0,0.0,0.5,0.6666666666666667,0.0,0.5,0.0,0.6153846153846154,1.0,1.0,0.2692307692307692,0.03733955659276546,0.5,0.99,0.5,0.0,0.0779615665288251,0.0,0.0,0.0
0.0,0.0,0.0028979646148765276,0.5555555555555554,0.09090909090909094,0.1818181818181818,0.6666666666666667,0.0,0.6000000000000001,0.0,1.0,1.0,0.6666666666666667,0.5,0.0,0.6153846153846154,1.0,1.0,0.5192307692307692,0.8599766627771295,0.5,0.215,0.0,0.0,0.0779615665288251,0.0,0.0,1.0
1.0,0.0,0.003184982807108938,0.518518518518519,0.11688311688311687,0.36363636363636365,0.6666666666666667,0.0,0.0,0.0,0.5,0.6666666666666667,0.3333333333333333,0.5,0.0,0.6153846153846154,1.0,1.0,0.4230769230769231,0.7782963827304551,0.5,0.215,0.0,1.0,0.0,0.0,0.0,1.0
0.0,0.0,0.00349518805853917,0.48148148148148184,0.09090909090909094,0.04545454545454544,0.0,0.0,0.0,0.0,0.5,0.6666666666666667,0.6666666666666667,0.5,0.0,0.6153846153846154,1.0,1.0,0.36538461538461536,0.7199533255542591,0.5,0.215,0.0,0.0,0.0779615665288251,0.43749121080016873,0.0,1.0
1.0,0.0,0.9968359064354115,0.7592592592592595,0.11688311688311687,0.13636363636363638,0.6666666666666667,0.6666666666666667,0.6000000000000001,0.5,0.5,1.0,0.6666666666666667,0.5,1.0,0.6923076923076924,1.0,1.0,0.2692307692307692,0.03967327887981331,0.0,0.215,1.0,0.0,0.10228654828508879,0.0,0.0,1.0
0.0,0.0,0.0032392948376623876,0.20370370370370416,0.31168831168831174,0.25,0.0,0.0,0.0,0.0,1.0,0.6666666666666667,0.0,0.5,0.0,0.6153846153846154,1.0,1.0,0.2115384615384615,0.8366394399066511,0.5,0.09,0.0,0.0,0.07569934322549259,0.8595134298973421,0.0,1.0
1.0,0.0,0.0034864145766805438,0.5,0.16883116883116883,0.13636363636363638,0.3333333333333333,0.0,0.2,0.0,0.0,0.6666666666666667,0.0,0.0,0.0,0.6153846153846154,1.0,1.0,0.44230769230769235,0.7782963827304551,0.5,0.215,0.0,1.0,0.0,0.0,0.0,1.0
0.0,0.0,0.002131956091647791,0.7407407407407405,0.15584415584415584,0.6590909090909091,0.0,0.0,0.2,0.0,0.25,0.6666666666666667,0.3333333333333333,0.0,0.0,0.6153846153846154,0.6666666666666667,0.75,0.30769230769230765,0.03150525087514586,0.5,0.215,0.0,0.0,0.053660909754317684,0.0,0.0,0.0
0.0,0.0,0.0033589901973051645,0.5370370370370363,0.32467532467532473,0.36363636363636365,0.6666666666666667,0.0,1.0000000000000002,0.5,0.75,0.6666666666666667,0.0,0.5,0.5,0.6153846153846154,0.0,0.75,0.8461538461538463,0.08051341890315052,0.5,0.09,1.0,0.0,0.053709559717830216,0.0,0.0,1.0
1.0,0.0,0.003363794723084887,0.6111111111111116,0.06493506493506496,0.22727272727272727,0.3333333333333333,0.0,0.0,0.0,0.5,0.0,0.0,0.5,0.0,0.6153846153846154,0.0,1.0,0.30769230769230765,0.6849474912485414,0.0,0.09,0.0,1.0,0.0,0.0,0.0,1.0
0.0,0.0,0.0024824775811427002,0.518518518518519,0.2207792207792208,0.1818181818181818,0.0,0.0,0.4000000000000001,0.0,0.75,1.0,0.6666666666666667,0.5,0.0,0.6153846153846154,1.0,0.75,0.4230769230769231,0.04900816802800467,0.0,0.19,0.5,0.0,0.0779615665288251,0.0,0.0,0.0
1.0,0.0,0.002373853520035815,0.40740740740740744,0.11688311688311687,0.13636363636363638,0.6666666666666667,0.0,0.6000000000000001,0.0,0.0,0.0,0.6666666666666667,0.5,0.0,0.6153846153846154,0.0,0.0,0.2692307692307692,0.025670945157526256,0.5,0.215,1.0,0.0,0.05363658477256142,0.0,0.0,1.0
0.0,0.0,0.002085790865677367,0.48148148148148184,0.07792207792207795,0.6818181818181818,1.0,0.0,0.0,0.0,0.5,0.6666666666666667,0.3333333333333333,0.5,0.5,0.6153846153846154,1.0,0.75,0.3461538461538462,0.05017502917152859,0.5,0.215,0.0,0.0,0.05363658477256142,0.0,0.0,1.0
0.0,0.0,0.0024874909993476274,0.6111111111111116,0.11688311688311687,0.13636363636363638,0.6666666666666667,0.0,0.4000000000000001,0.0,1.0,1.0,0.3333333333333333,0.5,0.0,0.6153846153846154,1.0,1.0,0.19230769230769235,0.03733955659276546,0.5,0.215,0.0,0.0,0.7567501824373631,0.0,0.0,1.0
0.0,0.0,0.9909992431827435,0.37037037037037024,0.12987012987012986,0.2727272727272727,0.6666666666666667,0.6666666666666667,0.0,0.0,0.75,1.0,0.0,0.5,0.0,0.6153846153846154,0.0,1.0,0.4230769230769231,0.05367561260210035,0.5,0.09,0.0,0.0,0.053709559717830216,0.0,0.0,0.0
0.0,0.0,0.0035206729344142568,0.37037037037037024,0.3506493506493507,0.13636363636363638,0.6666666666666667,0.0,0.4000000000000001,0.0,0.25,0.6666666666666667,0.6666666666666667,0.5,0.0,0.6153846153846154,1.0,1.0,0.1538461538461538,0.6732788798133023,0.5,0.09,1.0,1.0,0.053709559717830216,0.0,0.0,1.0
0.0,0.0,0.0019264059452455268,0.5555555555555554,0.12337662337662336,0.13636363636363638,0.6666666666666667,0.0,0.0,0.0,0.5,0.6666666666666667,0.0,0.5,0.0,0.6153846153846154,1.0,1.0,0.4038461538461539,0.05017502917152859,0.5,0.215,0.0,0.0,0.053660909754317684,0.0,0.0,1.0
0.0,0.0,0.002190863755555758,0.44444444444444375,0.0,0.04545454545454544,0.6666666666666667,0.0,0.0,0.0,0.5,0.6666666666666667,0.0,0.5,0.0,0.6153846153846154,1.0,1.0,0.2692307692307692,0.03733955659276546,0.5,0.215,0.5,0.0,0.051398686450985165,0.0,0.0,1.0
1.0,0.0,0.0025472342329564135,0.40740740740740744,0.3766233766233767,0.31818181818181823,0.6666666666666667,0.0,0.0,0.0,0.5,0.6666666666666667,0.3333333333333333,0.0,1.0,0.07692307692307693,1.0,1.0,0.4038461538461539,0.03150525087514586,0.5,0.215,0.5,0.0,0.034054974458769156,0.0,0.0,1.0
0.0,0.0,0.003362332476108454,0.48148148148148184,0.11688311688311687,0.13636363636363638,0.6666666666666667,0.0,0.4000000000000001,0.0,0.75,0.6666666666666667,0.0,0.5,0.0,0.6153846153846154,0.6666666666666667,1.0,0.38461538461538464,0.8133022170361727,0.5,0.09,0.0,0.0,0.07567501824373632,0.0,0.0,1.0
1.0,0.0,0.002468690681079133,0.4629629629629628,0.06493506493506496,0.1818181818181818,0.0,0.0,0.0,0.0,0.25,0.6666666666666667,0.0,0.5,0.0,0.6153846153846154,1.0,0.5,0.3269230769230769,0.028004667444574097,0.5,0.215,0.0,0.0,0.009729992702505474,0.0,0.0,1.0
0.0,0.0,0.0018900586632597666,0.518518518518519,0.45454545454545453,0.13636363636363638,0.6666666666666667,0.0,0.6000000000000001,0.5,1.0,1.0,0.0,0.5,0.0,0.6153846153846154,0.3333333333333333,1.0,0.6923076923076923,0.03500583430571762,0.5,0.215,0.5,0.0,0.10228654828508879,0.0,0.0,1.0
0.0,1.0,0.9961459347549577,0.5,0.6883116883116884,0.4545454545454545,0.6666666666666667,0.6666666666666667,0.4000000000000001,0.0,1.0,0.0,0.6666666666666667,0.5,0.5,0.5230769230769231,0.3333333333333333,1.0,0.19230769230769235,0.018669778296382736,0.5,0.27999999999999997,0.5,0.0,0.05363658477256142,0.0,0.0,0.0
0.0,0.0,0.002552038758736136,0.518518518518519,0.11688311688311687,0.13636363636363638,0.6666666666666667,0.6666666666666667,0.4000000000000001,0.5,1.0,0.6666666666666667,0.6666666666666667,1.0,0.5,0.6153846153846154,1.0,1.0,0.44230769230769235,0.03033838973162195,0.5,0.215,0.5,0.0,0.07358306981269765,0.0,0.0,1.0
0.0,0.0,0.003310527154657475,0.48148148148148184,0.11688311688311687,0.13636363636363638,0.0,0.0,0.0,0.0,0.0,0.3333333333333333,1.0,0.5,0.5,0.6153846153846154,1.0,1.0,0.2692307692307692,0.03733955659276546,0.5,0.215,0.0,0.0,0.07567501824373632,0.0,0.0,1.0
1.0,0.0,0.0028979646148765276,0.48148148148148184,0.16883116883116883,0.13636363636363638,0.0,0.3333333333333333,0.4000000000000001,0.0,0.0,0.0,0.0,0.0,0.0,0.6153846153846154,0.0,0.0,0.36538461538461536,0.7899649941656943,0.5,0.215,0.0,1.0,0.0,0.0,0.0,1.0
1.0,0.0,0.003345412189666802,0.48148148148148184,0.19480519480519481,0.2727272727272727,0.0,0.0,0.0,0.0,0.5,0.6666666666666667,0.0,0.0,0.0,0.6153846153846154,1.0,1.0,0.5192307692307692,0.04317386231038507,0.0,0.09,0.0,1.0,0.0,0.0,0.0,1.0
0.0,0.0,0.002398920611060479,0.5,0.09090909090909094,0.011363636363636367,0.6666666666666667,0.0,0.0,0.0,0.25,0.3333333333333333,0.0,0.0,0.0,0.6153846153846154,1.0,1.0,0.1538461538461538,0.04667444574095683,0.5,0.215,0.0,1.0,0.12464120651909512,0.0,0.0,1.0
1.0,0.0,0.0009406425907005633,0.11111111111111072,0.07792207792207795,0.25,0.6666666666666667,0.0,0.8,0.0,0.5,0.6666666666666667,0.0,0.5,0.0,0.6153846153846154,1.0,1.0,0.7884615384615385,0.04084014002333722,0.5,0.215,0.5,1.0,0.034054974458769156,0.0,0.0,1.0
0.0,0.0,0.0024912510630013263,0.518518518518519,0.5844155844155845,0.13636363636363638,1.0,0.6666666666666667,1.0000000000000002,0.5,1.0,1.0,1.0,0.5,0.0,0.6153846153846154,1.0,1.0,0.653846153846154,0.014002333722287048,1.0,0.38,0.5,0.0,0.0779615665288251,0.0,0.0,0.0
0.0,0.0,0.0022869542711503044,0.44444444444444375,0.11688311688311687,0.22727272727272727,0.0,0.0,0.0,0.5,0.0,0.3333333333333333,0.0,0.5,0.0,0.6153846153846154,0.0,0.0,0.44230769230769235,0.03033838973162195,0.5,0.6900000000000001,0.0,1.0,0.0,0.0,0.0,0.0
0.0,0.0,0.003351261177572562,0.3148148148148149,0.3506493506493507,0.36363636363636365,0.6666666666666667,0.6666666666666667,1.0000000000000002,0.0,0.25,1.0,1.0,1.0,0.5,0.15384615384615385,1.0,1.0,1.0,0.9066511085180864,0.5,0.215,1.0,1.0,0.034054974458769156,0.0,0.0,1.0
1.0,0.0,0.003503125970696991,0.518518518518519,0.32467532467532473,0.2727272727272727,0.6666666666666667,0.6666666666666667,0.2,0.0,0.25,0.6666666666666667,0.6666666666666667,0.5,0.0,0.6153846153846154,0.6666666666666667,1.0,0.5192307692307692,0.8949824970828472,0.5,0.215,0.0,0.0,0.0,0.0,0.0,1.0
0.0,0.0,0.0032668686377895217,0.518518518518519,0.11688311688311687,0.13636363636363638,0.0,0.6666666666666667,0.4000000000000001,0.0,0.5,1.0,1.0,0.0,1.0,0.15384615384615385,1.0,1.0,0.36538461538461536,0.7899649941656943,0.5,0.215,0.0,0.0,0.07567501824373632,0.0,0.0,1.0
1.0,0.0,0.0024074852004939,0.48148148148148184,0.09090909090909094,0.04545454545454544,0.3333333333333333,0.0,0.4000000000000001,0.0,0.5,1.0,0.6666666666666667,0.0,0.5,0.8461538461538461,0.0,0.75,0.19230769230769235,0.03733955659276546,0.5,0.215,0.5,0.0,0.053733884699586475,0.0,0.0,1.0
0.0,0.0,0.002255202622519062,0.5370370370370363,0.6623376623376624,0.13636363636363638,0.6666666666666667,0.6666666666666667,1.0000000000000002,0.5,0.25,1.0,0.3333333333333333,0.5,1.0,0.8,1.0,0.75,0.653846153846154,0.05484247374562427,0.5,0.51,0.0,0.0,0.0513743614692289,0.0,0.0,0.0
1.0,0.0,0.0035173306556109674,0.6111111111111116,0.11688311688311687,0.1818181818181818,0.6666666666666667,0.0,0.0,0.0,0.0,0.0,0.0,0.0,0.0,0.6153846153846154,0.0,1.0,0.2115384615384615,0.6966161026837806,0.5,0.215,0.0,1.0,0.0,0.0,0.0,1.0
1.0,0.0,0.003199605276873324,0.6481481481481479,0.09090909090909094,0.06818181818181818,0.6666666666666667,0.0,0.0,0.0,0.25,0.6666666666666667,0.3333333333333333,0.5,0.0,0.6153846153846154,1.0,0.25,0.19230769230769235,0.7082847141190198,0.5,0.215,0.0,1.0,0.0,0.0,0.0,1.0
0.0,0.0,0.0022817319605201586,0.7222222222222223,0.11688311688311687,0.13636363636363638,1.0,0.6666666666666667,1.0000000000000002,0.5,0.75,1.0,0.3333333333333333,0.0,1.0,0.46153846153846156,1.0,0.75,1.0,0.03733955659276546,1.0,0.42,0.5,0.0,0.05368523473607395,0.0,0.0,0.0
0.0,0.0,0.0032085876511571687,0.518518518518519,0.45454545454545453,0.13636363636363638,0.6666666666666667,0.6666666666666667,0.6000000000000001,0.5,0.5,1.0,1.0,0.5,0.0,0.15384615384615385,1.0,1.0,0.8653846153846154,0.7082847141190198,1.0,0.19,0.0,0.0,0.053733884699586475,0.0,0.0,1.0
1.0,0.0,0.002157440967522864,0.5925925925925934,0.11688311688311687,0.13636363636363638,0.6666666666666667,0.0,0.0,0.0,0.0,0.6666666666666667,0.3333333333333333,0.5,0.0,0.6153846153846154,0.6666666666666667,0.25,0.5192307692307692,0.04667444574095683,0.0,0.215,0.0,1.0,0.07567501824373632,0.0,0.0,0.0
1.0,0.0,0.0034857878994049296,0.6296296296296289,0.11688311688311687,0.36363636363636365,0.0,0.0,0.4000000000000001,0.0,0.5,0.6666666666666667,1.0,0.5,0.0,0.6153846153846154,1.0,1.0,0.3461538461538462,0.7199533255542591,0.5,0.215,0.0,0.0,0.10031622476283143,0.0,0.0,1.0
1.0,0.0,0.0020410878866833765,0.48148148148148184,0.11688311688311687,0.13636363636363638,0.6666666666666667,0.6666666666666667,0.6000000000000001,0.0,0.0,1.0,0.3333333333333333,0.5,0.0,0.6153846153846154,1.0,0.25,0.5,0.05834305717619605,0.0,0.215,0.0,1.0,0.009729992702505474,0.0,0.0,0.0
1.0,0.0,0.002197548313162337,0.5925925925925934,0.14285714285714285,0.13636363636363638,0.0,0.0,0.0,0.0,0.5,0.6666666666666667,0.3333333333333333,0.0,0.0,0.6153846153846154,0.0,0.5,0.24999999999999994,0.03850641773628938,0.0,0.49,0.0,1.0,0.0,0.0,0.0,0.0
0.0,0.0,0.0032278057542760724,0.44444444444444375,0.19480519480519481,0.1818181818181818,0.0,0.0,0.4000000000000001,0.5,0.5,1.0,1.0,0.5,1.0,0.15384615384615385,1.0,1.0,0.5576923076923077,0.8366394399066511,0.5,0.215,1.0,0.0,0.05363658477256142,0.0,0.0,1.0
1.0,0.0,0.002041296779108581,0.48148148148148184,0.07792207792207795,0.36363636363636365,0.6666666666666667,0.0,0.0,0.0,0.5,0.6666666666666667,0.0,0.5,0.0,0.6153846153846154,1.0,1.0,0.2692307692307692,0.03733955659276546,0.5,0.215,0.0,1.0,0.07567501824373632,0.0,0.0,1.0
1.0,0.0,0.002017483042635146,0.518518518518519,0.11688311688311687,0.04545454545454544,0.0,0.0,0.2,0.0,0.25,0.0,0.3333333333333333,1.0,0.0,0.6153846153846154,0.0,0.5,0.4038461538461539,0.04900816802800467,0.5,0.215,0.0,1.0,0.0,0.0,0.0,0.0
0.0,0.0,0.0019719444939403363,0.518518518518519,0.11688311688311687,0.13636363636363638,0.6666666666666667,0.0,0.0,0.0,0.75,0.6666666666666667,0.0,0.0,0.0,0.6153846153846154,1.0,1.0,0.23076923076923078,0.6382730455075846,0.5,0.09,0.0,0.0,0.10228654828508879,0.0,0.0,1.0
0.0,0.0,0.002497308943332291,0.5370370370370363,0.07792207792207795,0.1818181818181818,0.6666666666666667,0.0,0.0,0.0,0.5,0.6666666666666667,0.0,0.5,0.0,0.6153846153846154,1.0,1.0,0.3269230769230769,0.060676779463243874,0.5,0.215,0.5,0.0,0.17302359523230357,0.0,0.0,1.0
1.0,0.0,0.003488503500932605,0.7592592592592595,0.19480519480519481,0.022727272727272735,0.6666666666666667,0.0,0.0,0.5,0.5,0.6666666666666667,0.3333333333333333,0.5,0.0,0.6153846153846154,0.6666666666666667,1.0,0.2884615384615385,0.6149358226371062,0.0,0.215,0.0,1.0,0.0,0.0,0.0,1.0
0.0,0.0,0.0032307302482289524,0.48148148148148184,0.2337662337662338,0.13636363636363638,0.0,0.6666666666666667,0.4000000000000001,0.0,1.0,0.6666666666666667,0.0,0.0,0.0,0.6153846153846154,0.6666666666666667,1.0,0.44230769230769235,0.49824970828471415,1.0,0.19,1.0,0.0,0.1510338117246412,0.0,0.0,1.0
0.0,0.0,0.0020987421960401015,0.6111111111111116,0.29870129870129875,0.13636363636363638,0.0,0.0,0.8,0.5,0.5,0.6666666666666667,0.3333333333333333,0.5,0.5,0.6153846153846154,1.0,0.75,0.5192307692307692,0.05484247374562427,0.5,0.215,0.0,0.0,0.053709559717830216,0.0,0.0,0.0
0.0,0.0,0.0034360715022060118,0.7407407407407405,0.5844155844155845,0.4545454545454545,0.6666666666666667,0.0,0.8,0.0,0.5,0.6666666666666667,0.6666666666666667,0.0,0.0,0.6153846153846154,1.0,1.0,0.6346153846153848,0.7082847141190198,0.0,0.19,1.0,1.0,0.034054974458769156,0.0,0.0,1.0
0.0,0.0,0.0019719444939403363,0.5370370370370363,0.06493506493506496,0.11363636363636365,0.0,0.0,0.0,0.0,0.5,0.0,0.0,0.5,0.0,0.6153846153846154,0.3333333333333333,0.0,0.38461538461538464,0.03033838973162195,0.0,0.215,0.0,1.0,0.0,0.0,0.0,0.0
1.0,0.0,0.0020519502927940636,0.518518518518519,0.09090909090909094,0.1818181818181818,0.0,0.0,0.0,0.0,0.5,0.6666666666666667,0.0,0.5,0.0,0.6153846153846154,1.0,0.0,0.2692307692307692,0.03500583430571762,0.5,0.215,0.0,1.0,0.07567501824373632,0.0,0.0,1.0
0.0,0.0,0.0024603349840709027,0.5555555555555554,0.4805194805194805,0.36363636363636365,0.0,0.0,0.4000000000000001,0.0,0.25,1.0,0.3333333333333333,0.5,1.0,0.8461538461538461,1.0,0.75,0.6153846153846154,0.060676779463243874,0.5,0.215,0.0,0.0,0.05166626125030406,0.0,0.0,1.0
0.0,0.0,0.003469494290238892,0.518518518518519,0.2272727272727273,0.1818181818181818,0.6666666666666667,0.0,0.0,0.5,1.0,0.6666666666666667,1.0,1.0,0.0,0.6153846153846154,1.0,1.0,0.2692307692307692,0.03733955659276546,0.5,0.215,1.0,0.0,0.0779615665288251,0.0,0.0,1.0
1.0,0.0,0.0030308201973072435,0.3888888888888893,0.09090909090909094,0.13636363636363638,0.0,0.0,0.4000000000000001,0.0,0.5,0.0,0.0,0.5,0.0,0.6153846153846154,0.0,1.0,0.23076923076923078,0.04550758459743291,0.5,0.215,0.0,1.0,0.0,0.0,0.0,1.0
1.0,0.0,0.0019220192043162138,0.666666666666667,0.3636363636363637,0.09090909090909091,0.6666666666666667,0.6666666666666667,0.8,0.0,0.5,0.6666666666666667,0.6666666666666667,0.5,0.5,0.6153846153846154,1.0,1.0,0.8653846153846154,0.029171528588098017,1.0,0.5900000000000001,0.5,0.0,0.1313549014838239,0.0,0.0,0.0
0.0,0.0,0.0035127350222564357,0.5740740740740744,0.6428571428571428,0.4545454545454545,0.6666666666666667,0.6666666666666667,0.4000000000000001,0.0,0.25,1.0,0.6666666666666667,0.0,1.0,0.15384615384615385,1.0,1.0,0.653846153846154,0.7316219369894983,1.0,0.19,0.0,0.0,0.053660909754317684,0.0,0.0,1.0
0.0,0.0,0.002350666460837994,0.518518518518519,0.4805194805194805,0.13636363636363638,0.6666666666666667,0.6666666666666667,0.8,0.5,0.25,1.0,0.6666666666666667,0.5,1.0,0.6153846153846154,1.0,0.75,0.8846153846153848,0.061843640606767794,0.5,0.33,0.5,0.0,0.05368523473607395,0.0,0.0,0.0
1.0,0.0,0.0,0.518518518518519,0.11688311688311687,0.13636363636363638,0.6666666666666667,1.0,1.0000000000000002,0.0,0.75,0.6666666666666667,1.0,0.5,0.0,0.6153846153846154,1.0,1.0,0.2692307692307692,0.03733955659276546,0.5,0.215,0.5,0.0,0.08270493797129652,0.0,0.0,0.0
0.0,0.0,0.0019746600954680116,0.518518518518519,0.11688311688311687,0.13636363636363638,0.6666666666666667,0.0,0.0,0.0,0.5,0.6666666666666667,0.0,0.5,0.0,0.6153846153846154,1.0,1.0,0.2692307692307692,0.03733955659276546,0.5,0.215,0.0,0.0,0.053709559717830216,0.0,0.0,1.0
0.0,0.0,0.003478894449373146,0.518518518518519,0.19480519480519481,0.25,0.0,0.0,0.4000000000000001,0.0,0.5,0.6666666666666667,0.0,0.5,0.0,0.6153846153846154,0.6666666666666667,0.25,0.4807692307692308,0.7316219369894983,0.5,0.215,0.0,0.0,0.14867428849428363,0.0,0.0,1.0
0.0,0.0,0.0009847188924189398,0.518518518518519,0.24675324675324678,0.06818181818181818,0.6666666666666667,0.0,0.6000000000000001,0.0,0.75,0.6666666666666667,0.0,0.5,0.0,0.5076923076923077,1.0,1.0,0.2692307692307692,0.03733955659276546,0.5,0.26999999999999996,0.5,0.0,0.10228654828508879,0.0,0.0,0.0
0.0,0.0,0.003236161451284303,0.518518518518519,0.19480519480519481,0.25,0.6666666666666667,0.6666666666666667,0.6000000000000001,0.5,1.0,1.0,1.0,0.0,0.0,0.6153846153846154,1.0,1.0,0.4230769230769231,0.7782963827304551,1.0,0.19,0.0,0.0,0.14864996351252738,0.43749121080016873,0.0,1.0
1.0,0.0,0.00202103421386364,0.5740740740740744,0.45454545454545453,0.13636363636363638,0.6666666666666667,0.6666666666666667,0.8,0.5,0.75,0.6666666666666667,1.0,0.5,0.0,0.6153846153846154,1.0,1.0,0.2692307692307692,0.03733955659276546,0.5,0.215,1.0,1.0,0.02702505473120895,0.0,0.0,0.0
0.0,0.0,0.002457201597692818,0.5555555555555554,0.3506493506493507,0.25,0.6666666666666667,0.0,0.8,0.5,0.75,0.6666666666666667,0.6666666666666667,0.5,1.0,0.8461538461538461,1.0,0.75,0.4615384615384615,0.04900816802800467,1.0,0.215,0.5,0.0,0.05594745803940647,0.0,0.0,1.0
1.0,0.0,0.002053203647345306,0.44444444444444375,0.11688311688311687,0.06818181818181818,0.6666666666666667,0.0,0.0,0.0,0.5,0.6666666666666667,0.3333333333333333,0.0,1.0,0.6615384615384615,0.0,1.0,0.23076923076923078,0.04900816802800467,0.5,0.215,0.0,1.0,0.07567501824373632,0.0,0.0,0.0
0.0,0.0,0.9946091131827206,0.48148148148148184,0.11688311688311687,0.1818181818181818,0.6666666666666667,0.6666666666666667,1.0000000000000002,0.5,1.0,0.6666666666666667,1.0,0.0,0.0,0.6153846153846154,1.0,1.0,0.8653846153846154,0.05250875145857643,0.5,0.215,0.5,0.0,0.05363658477256142,0.0,0.0,1.0
1.0,0.0,0.0034218668172920352,0.44444444444444375,0.16883116883116883,0.09090909090909091,0.0,0.0,0.2,0.0,0.25,0.0,0.0,0.5,0.0,0.6153846153846154,0.0,1.0,0.4038461538461539,0.7549591598599766,0.0,0.09,0.0,1.0,0.0,0.0,0.0,1.0
1.0,0.0,0.0032539173074267735,0.518518518518519,0.24675324675324678,0.2727272727272727,0.3333333333333333,0.3333333333333333,0.2,0.0,0.0,0.0,0.0,1.0,0.0,0.6153846153846154,0.0,0.0,0.38461538461538464,0.7199533255542591,0.5,0.215,0.0,1.0,0.0,0.0,0.0,1.0
0.0,0.0,0.003416853399087094,0.5740740740740744,0.5844155844155845,0.5909090909090909,1.0,0.6666666666666667,1.0000000000000002,0.5,0.5,0.6666666666666667,0.0,0.5,0.0,0.6153846153846154,1.0,1.0,0.5961538461538463,0.03733955659276546,0.5,0.215,0.0,0.0,0.1313549014838239,0.0,0.0,1.0
0.0,0.0,0.994297654576739,0.7222222222222223,0.2207792207792208,0.9318181818181818,0.3333333333333333,0.6666666666666667,0.0,0.0,0.5,0.6666666666666667,0.0,0.0,0.5,0.6153846153846154,1.0,1.0,0.30769230769230765,0.03967327887981331,0.5,0.215,0.0,0.0,0.5135003648747264,0.0,0.0,1.0
0.0,0.0,0.001856844767652091,0.5555555555555554,0.32467532467532473,0.25,1.0,0.6666666666666667,0.0,0.0,0.5,0.6666666666666667,0.6666666666666667,1.0,1.0,0.6153846153846154,1.0,1.0,0.17307692307692307,0.03267211201866978,1.0,0.42,0.0,0.0,0.17535879348090488,0.0,0.0,0.0
0.0,0.0,0.003219241164842651,0.5740740740740744,0.19480519480519481,0.13636363636363638,0.0,0.0,0.0,0.0,0.5,0.0,0.0,0.5,0.0,0.6153846153846154,1.0,1.0,0.19230769230769235,0.5799299883313885,0.0,0.215,0.0,0.0,0.1,0.0,0.0,1.0
0.0,0.0,0.9987412142457115,0.5370370370370363,0.19480519480519481,0.09090909090909091,0.6666666666666667,0.0,0.0,0.0,0.25,0.0,0.0,0.5,0.5,0.3076923076923077,0.0,0.75,0.13461538461538464,0.03150525087514586,0.0,0.29000000000000004,0.0,0.0,0.7567501824373631,0.0,0.0,1.0
0.0,0.0,0.0021444896371601158,0.3148148148148149,0.06493506493506496,0.0,0.6666666666666667,0.0,0.6000000000000001,0.0,0.5,0.6666666666666667,0.0,0.0,0.0,0.6153846153846154,0.6666666666666667,0.5,0.0,0.03967327887981331,1.0,0.215,0.0,0.0,0.07621016784237412,0.0,0.0,0.0
1.0,1.0,0.9961668239974784,0.518518518518519,0.45454545454545453,0.40909090909090906,0.3333333333333333,0.0,0.0,0.0,0.75,0.0,0.0,0.5,0.0,0.6153846153846154,0.0,1.0,0.2692307692307692,0.016336056009334896,0.5,0.215,0.0,1.0,0.17297494526879106,0.0,0.0,1.0
0.0,0.0,0.003407453239952854,0.518518518518519,0.11688311688311687,0.11363636363636365,0.0,0.0,0.0,0.0,0.5,0.6666666666666667,0.6666666666666667,0.0,0.5,0.6153846153846154,1.0,1.0,0.4807692307692308,0.8249708284714119,0.0,0.19,0.0,0.0,0.12432498175626369,0.0,0.0,1.0
0.0,0.0,0.002276300757464822,0.518518518518519,0.19480519480519481,0.4545454545454545,0.6666666666666667,0.6666666666666667,0.6000000000000001,0.5,0.75,0.6666666666666667,1.0,0.5,0.0,0.6153846153846154,1.0,1.0,0.6730769230769231,0.05017502917152859,0.5,0.215,0.5,0.0,0.0779615665288251,0.0,0.0,1.0
1.0,0.0,0.003276895474199376,0.4629629629629628,0.3766233766233767,0.1818181818181818,0.0,0.0,0.2,0.0,0.25,0.3333333333333333,0.0,0.5,0.0,0.6153846153846154,1.0,0.0,0.2692307692307692,0.6149358226371062,0.5,0.215,0.0,1.0,0.0,0.0,0.0,1.0
1.0,0.0,0.0031795516040536015,0.48148148148148184,0.09090909090909094,0.04545454545454544,0.6666666666666667,0.0,0.0,0.0,0.5,0.0,0.3333333333333333,0.5,0.0,0.6153846153846154,0.0,1.0,0.36538461538461536,0.7082847141190198,0.5,0.215,0.0,1.0,0.0,0.0,0.0,1.0
1.0,0.0,0.002329568325892234,0.5740740740740744,0.19480519480519481,0.13636363636363638,0.0,0.0,0.8,0.5,0.25,0.3333333333333333,0.0,0.5,0.0,0.6153846153846154,0.3333333333333333,0.5,0.7692307692307694,0.04900816802800467,0.5,0.21999999999999997,1.0,1.0,0.007297494526879105,0.0,0.0,0.0
1.0,0.0,0.0006105925588757999,0.5740740740740744,0.42857142857142855,0.31818181818181823,0.6666666666666667,0.6666666666666667,0.0,0.5,0.25,1.0,0.3333333333333333,0.0,0.5,0.6153846153846154,1.0,1.0,0.903846153846154,0.060676779463243874,0.5,0.215,0.5,0.0,0.034054974458769156,0.0,0.0,0.0
1.0,0.0,0.0032188233799922417,0.5370370370370363,0.19480519480519481,0.13636363636363638,0.0,0.0,0.0,0.5,0.0,0.6666666666666667,0.0,0.5,0.0,0.6153846153846154,0.6666666666666667,1.0,0.2115384615384615,0.7316219369894983,0.5,0.215,0.0,1.0,0.0,0.0,0.0,1.0
1.0,0.0,0.0032756421196481478,0.5740740740740744,0.19480519480519481,0.36363636363636365,0.6666666666666667,0.0,0.2,0.0,0.25,0.0,0.3333333333333333,0.5,0.0,0.6153846153846154,0.6666666666666667,0.25,0.5,0.6499416569428238,0.5,0.215,0.0,1.0,0.0,0.0,0.0,1.0
0.0,0.0,0.0019993094016422658,0.3518518518518512,0.11688311688311687,0.04545454545454544,0.0,0.0,0.4000000000000001,0.0,0.5,0.0,0.6666666666666667,0.5,0.0,0.6153846153846154,0.6666666666666667,0.5,0.3269230769230769,0.03850641773628938,0.5,0.215,0.0,0.0,0.0779615665288251,0.0,0.0,0.0
0.0,0.0,0.0021233915022143557,0.5740740740740744,0.3636363636363637,0.13636363636363638,0.0,0.0,0.4000000000000001,0.0,0.75,1.0,0.6666666666666667,0.5,0.0,0.6153846153846154,0.6666666666666667,1.0,0.4230769230769231,0.04784130688448075,0.0,0.33,0.5,0.0,0.07805886645585015,0.0,0.0,0.0
0.0,0.0,0.003258095155930882,0.3888888888888893,0.11688311688311687,0.36363636363636365,0.6666666666666667,0.0,0.0,0.0,0.5,0.6666666666666667,0.0,0.0,0.0,0.6153846153846154,1.0,1.0,0.3461538461538462,0.603267211201867,1.0,0.19,1.0,0.0,0.053709559717830216,0.0,0.0,1.0
1.0,0.0,0.0023414751941289447,0.3333333333333339,0.038961038961038974,0.011363636363636367,0.0,0.0,0.0,0.0,0.25,0.6666666666666667,0.0,0.5,0.0,0.6153846153846154,1.0,0.0,0.23076923076923078,0.028004667444574097,0.5,0.215,0.0,1.0,0.7567501824373631,0.0,0.0,1.0
0.0,0.0,0.0023086790833716786,0.7037037037037042,0.11688311688311687,0.17045454545454544,0.6666666666666667,0.0,0.4000000000000001,0.0,0.75,1.0,0.3333333333333333,0.5,0.0,0.6153846153846154,1.0,1.0,0.24999999999999994,0.03850641773628938,0.0,0.29000000000000004,0.0,0.0,0.07577231817076137,0.0,0.0,0.0
1.0,0.0,0.00202103421386364,0.5740740740740744,0.45454545454545453,0.13636363636363638,0.6666666666666667,0.6666666666666667,0.8,0.5,0.75,0.6666666666666667,1.0,0.5,0.0,0.6153846153846154,1.0,1.0,0.2692307692307692,0.03733955659276546,0.5,0.215,1.0,1.0,0.10031622476283143,0.0,0.0,1.0
0.0,0.0,0.003480356696349579,0.5740740740740744,0.42857142857142855,0.25,0.3333333333333333,0.6666666666666667,0.6000000000000001,0.5,0.75,1.0,0.6666666666666667,0.5,0.0,0.6153846153846154,0.6666666666666667,1.0,0.5192307692307692,0.7199533255542591,0.5,0.215,0.0,0.0,0.14864996351252738,0.4376318379974687,0.0,1.0
0.0,0.0,0.0024693173583547473,0.518518518518519,0.11688311688311687,0.13636363636363638,0.6666666666666667,0.0,0.0,0.0,0.5,0.6666666666666667,0.0,0.5,0.0,0.6153846153846154,1.0,1.0,0.4230769230769231,0.06301050175029171,0.5,0.215,0.5,0.0,0.053709559717830216,0.0,0.0,1.0
0.0,0.0,0.0035223440738158945,0.44444444444444375,0.3766233766233767,0.8181818181818182,0.6666666666666667,0.6666666666666667,0.8,0.5,0.5,0.6666666666666667,0.6666666666666667,0.5,1.0,0.6153846153846154,1.0,1.0,0.7884615384615385,0.9999999999999999,0.5,0.215,1.0,0.0,0.0779615665288251,0.0,0.0,1.0
1.0,0.0,0.003342696588139127,0.3888888888888893,0.09090909090909094,0.022727272727272735,0.6666666666666667,0.0,0.0,0.0,0.5,0.0,0.3333333333333333,0.5,0.0,0.6153846153846154,0.6666666666666667,0.5,0.38461538461538464,0.5565927654609102,0.0,0.09,0.0,1.0,0.0,0.0,0.0,1.0
0.0,0.0,0.0024910421705761215,0.4629629629629628,0.24675324675324678,0.13636363636363638,0.6666666666666667,0.0,0.2,0.0,0.25,1.0,0.3333333333333333,0.5,0.0,0.6153846153846154,0.0,1.0,0.4230769230769231,0.008168028004667448,1.0,0.26999999999999996,0.5,0.0,0.1313549014838239,0.0,0.0,0.0
0.0,0.0,0.002384924818571707,0.48148148148148184,0.3636363636363637,0.1818181818181818,1.0,0.6666666666666667,0.6000000000000001,0.0,0.25,1.0,1.0,0.0,0.0,0.6153846153846154,1.0,1.0,0.4230769230769231,0.025670945157526256,0.0,1.0,0.5,0.0,0.07567501824373632,0.0,0.0,0.0
0.0,1.0,0.9976478712921857,0.6481481481481479,0.5844155844155845,0.25,0.0,0.6666666666666667,0.2,0.5,0.5,0.6666666666666667,0.6666666666666667,1.0,0.0,0.3076923076923077,1.0,1.0,0.4615384615384615,0.03500583430571762,0.0,0.215,0.0,1.0,0.05166626125030406,0.0,0.0,1.0
0.0,0.0,0.002027718771470219,0.40740740740740744,0.09740259740259744,0.04545454545454544,0.6666666666666667,0.0,0.4000000000000001,0.0,0.5,0.3333333333333333,0.3333333333333333,0.5,0.0,0.6153846153846154,0.0,0.75,0.30769230769230765,0.04317386231038507,0.5,0.14,0.0,0.0,0.0513743614692289,0.0,0.0,0.0
1.0,0.0,0.0022366111966757724,0.5925925925925934,0.16883116883116883,0.2727272727272727,0.3333333333333333,0.0,0.0,0.0,0.0,0.0,0.0,0.5,0.0,0.6153846153846154,0.3333333333333333,1.0,0.3269230769230769,0.04317386231038507,0.5,0.2,0.0,1.0,0.0,0.0,0.0,0.0
0.0,0.0,0.002226584360265904,0.44444444444444375,0.06493506493506496,0.04545454545454544,0.0,0.0,0.0,0.0,0.0,0.3333333333333333,0.0,0.5,0.0,0.6153846153846154,0.0,0.25,0.2884615384615385,0.04317386231038507,0.5,0.215,0.0,0.0,0.07567501824373632,0.0,0.0,1.0
1.0,0.0,0.0021935793570834194,0.518518518518519,0.11688311688311687,0.13636363636363638,0.6666666666666667,0.0,0.0,0.0,0.5,0.6666666666666667,0.0,0.5,0.0,0.6153846153846154,1.0,1.0,0.2692307692307692,0.03733955659276546,0.5,0.215,0.0,1.0,0.0,0.0,0.0,1.0
0.0,0.0,0.9945295251687172,0.48148148148148184,0.29870129870129875,0.11363636363636365,0.6666666666666667,0.0,0.0,0.5,0.5,0.6666666666666667,0.0,0.5,0.0,0.6153846153846154,1.0,1.0,0.9230769230769231,0.08984830805134189,0.5,0.215,0.0,0.0,0.053733884699586475,0.0,0.0,0.0
0.0,0.0,0.0035018726161457486,0.5,0.06493506493506496,0.31818181818181823,0.0,0.3333333333333333,0.2,0.0,0.25,0.3333333333333333,0.0,0.5,0.0,0.6153846153846154,1.0,1.0,0.2692307692307692,0.03733955659276546,0.5,0.215,1.0,0.0,0.07569934322549259,0.0,0.0,1.0
0.0,0.0,0.002352128707814441,0.518518518518519,0.14285714285714285,0.22727272727272727,0.6666666666666667,0.6666666666666667,0.6000000000000001,0.0,0.5,1.0,0.6666666666666667,0.5,0.0,0.6153846153846154,1.0,0.75,0.2692307692307692,0.056009334889148193,0.5,0.215,0.0,0.0,0.05135003648747263,0.0,0.0,1.0
0.0,0.0,0.003457796314427386,0.7037037037037042,0.3766233766233767,0.5681818181818181,1.0,1.0,0.0,0.5,1.0,1.0,0.0,0.5,0.0,0.6153846153846154,1.0,1.0,0.2692307692307692,0.03733955659276546,0.5,0.19,1.0,1.0,0.0779615665288251,0.0,0.0,1.0
0.0,0.0,0.0034582140992777954,0.5740740740740744,0.4025974025974027,0.36363636363636365,1.0,0.6666666666666667,0.0,0.0,0.25,1.0,0.6666666666666667,0.5,0.0,0.6153846153846154,1.0,1.0,0.44230769230769235,0.7432905484247374,0.5,0.19,0.0,0.0,0.053709559717830216,0.0,0.0,1.0
0.0,0.0,0.002156605397822045,0.518518518518519,0.5324675324675325,0.05681818181818182,1.0,1.0,0.6000000000000001,0.0,0.25,0.6666666666666667,0.0,0.5,0.0,0.5384615384615384,1.0,0.75,0.7115384615384617,0.03500583430571762,1.0,0.215,0.0,0.0,0.05363658477256142,0.0,0.0,0.0
0.0,0.0,0.0020266743093441952,0.4259259259259265,0.2337662337662338,0.04545454545454544,0.0,0.0,0.4000000000000001,0.0,0.5,0.6666666666666667,0.3333333333333333,0.5,0.0,0.6153846153846154,1.0,0.75,0.1634615384615385,0.0338389731621937,0.5,0.15000000000000002,0.0,0.0,0.053709559717830216,0.0,0.0,0.0
0.0,0.0,0.003533624264776991,0.6296296296296289,0.12987012987012986,0.06818181818181818,0.0,0.0,0.0,0.0,0.5,0.0,0.0,0.0,0.0,0.6153846153846154,0.6666666666666667,1.0,0.2884615384615385,0.6382730455075846,0.5,0.215,0.0,0.0,0.07567501824373632,0.0,0.0,1.0
1.0,0.0,0.0021839703055239745,0.5555555555555554,0.15584415584415584,0.1818181818181818,0.0,0.0,0.0,0.0,0.0,0.6666666666666667,0.0,0.5,0.0,0.6153846153846154,0.6666666666666667,0.25,0.5,0.04550758459743291,0.0,0.79,0.0,1.0,0.07567501824373632,0.0,0.0,0.0
0.0,0.0,0.002094564347535993,0.7037037037037042,0.5844155844155845,0.13636363636363638,1.0,0.6666666666666667,0.8,0.5,0.25,0.6666666666666667,0.6666666666666667,0.0,1.0,0.6153846153846154,1.0,0.75,0.7115384615384617,0.06417736289381565,1.0,0.215,0.5,0.0,0.05363658477256142,0.0,0.0,1.0
0.0,1.0,0.9966138537874181,0.518518518518519,0.11688311688311687,0.13636363636363638,0.6666666666666667,0.0,0.0,0.0,0.5,0.6666666666666667,0.0,0.5,0.0,0.6153846153846154,1.0,1.0,0.4230769230769231,0.03733955659276546,0.5,0.215,0.0,0.0,0.21892483580637315,0.0,0.0,0.0
0.0,0.0,0.003492681349436713,0.3518518518518512,0.3896103896103897,0.36363636363636365,0.6666666666666667,0.0,1.0000000000000002,0.5,1.0,1.0,0.6666666666666667,0.5,0.5,0.6153846153846154,0.0,1.0,0.8076923076923077,0.544924154025671,1.0,0.19,1.0,0.0,0.0779615665288251,0.0,0.0,1.0
0.0,1.0,0.0033675547867385858,0.5740740740740744,0.5844155844155845,0.7045454545454546,0.6666666666666667,0.0,0.0,0.0,0.5,0.0,0.0,0.5,0.0,0.6153846153846154,0.0,1.0,0.23076923076923078,0.5915985997666278,0.0,0.09,0.0,0.0,0.10228654828508879,0.43749121080016873,1.0,1.0
0.0,0.0,0.0033013358879484256,0.5740740740740744,0.4805194805194805,0.36363636363636365,0.6666666666666667,0.6666666666666667,0.0,0.0,0.75,0.6666666666666667,1.0,0.5,0.0,0.6153846153846154,1.0,1.0,0.2692307692307692,0.03733955659276546,0.5,0.215,0.0,0.0,0.05166626125030406,0.0,0.0,1.0
1.0,0.0,0.0024131252959744554,0.7592592592592595,0.4025974025974027,0.22727272727272727,0.6666666666666667,0.6666666666666667,1.0000000000000002,0.0,1.0,1.0,0.0,0.5,1.0,0.6153846153846154,1.0,1.0,0.9423076923076923,0.03617269544924155,0.5,0.35000000000000003,0.5,1.0,0.08027243979567016,0.0,0.0,1.0
0.0,0.0,0.990999660967594,0.5740740740740744,0.0,0.11363636363636365,0.6666666666666667,0.0,0.0,0.0,0.5,0.6666666666666667,0.0,0.5,0.0,0.6153846153846154,1.0,1.0,0.3269230769230769,0.05134189031505251,0.5,0.215,0.0,0.0,0.051398686450985165,0.0,0.0,1.0
0.0,0.0,0.002517153723726809,0.5370370370370363,0.27272727272727276,0.25,1.0,0.6666666666666667,0.4000000000000001,0.5,0.5,0.6666666666666667,0.6666666666666667,0.5,0.0,0.6153846153846154,0.6666666666666667,1.0,0.38461538461538464,0.04317386231038507,0.5,0.38,0.0,0.0,0.07572366820724885,0.0,0.0,0.0
1.0,0.0,0.0021417740356324544,0.3888888888888893,0.11688311688311687,0.25,1.0,0.0,0.4000000000000001,0.0,0.5,0.3333333333333333,0.0,0.0,0.0,0.6153846153846154,0.0,0.0,0.4807692307692308,0.061843640606767794,0.5,0.215,0.0,1.0,0.009729992702505474,0.0,0.0,1.0
0.0,0.0,0.002087462005079005,0.5,0.14285714285714285,0.1818181818181818,0.0,0.0,0.8,0.0,0.75,0.6666666666666667,0.0,0.5,1.0,0.9230769230769232,0.0,1.0,0.5961538461538463,0.04900816802800467,0.5,0.25,0.5,0.0,0.053660909754317684,0.0,0.0,0.0
1.0,0.0,0.0020268832017694,0.518518518518519,0.07792207792207795,0.20454545454545456,0.0,0.0,0.0,0.0,0.5,0.0,0.3333333333333333,0.5,0.0,0.6153846153846154,0.0,1.0,0.24999999999999994,0.04200700116686115,0.5,0.215,0.0,1.0,0.07567501824373632,0.0,0.0,1.0
1.0,0.0,0.0031906229025894933,0.4629629629629628,0.15584415584415584,0.38636363636363635,0.3333333333333333,0.0,0.8,0.0,0.5,0.0,0.0,0.5,0.0,0.6153846153846154,1.0,0.25,0.4615384615384615,0.5915985997666278,1.0,0.09,0.0,1.0,0.0,0.0,0.0,1.0
1.0,0.0,0.002136133940151899,0.12962962962962976,0.3766233766233767,0.13636363636363638,0.6666666666666667,0.6666666666666667,0.4000000000000001,0.0,0.5,0.6666666666666667,0.3333333333333333,0.5,1.0,0.6153846153846154,1.0,0.75,0.4230769230769231,0.04317386231038507,1.0,0.47,1.0,0.0,0.053733884699586475,0.0,0.0,0.0
0.0,0.0,0.0032810733227034983,0.5,0.25974025974025977,0.1590909090909091,0.6666666666666667,0.0,0.0,0.0,1.0,0.6666666666666667,0.0,0.5,0.0,0.6153846153846154,1.0,1.0,0.24999999999999994,0.7199533255542591,0.5,0.215,1.0,0.0,0.0779615665288251,0.0,0.0,1.0
0.0,0.0,0.002231806670896036,0.48148148148148184,0.3896103896103897,0.25,1.0,0.6666666666666667,0.6000000000000001,0.5,1.0,1.0,1.0,0.5,0.0,0.6153846153846154,1.0,1.0,0.6153846153846154,0.03267211201866978,0.5,0.215,0.5,0.0,0.0779615665288251,0.0,0.0,1.0
0.0,0.0,0.002207784041997396,0.518518518518519,0.14285714285714285,0.09090909090909091,0.0,0.0,0.2,0.0,0.0,0.3333333333333333,0.0,0.0,0.0,0.6153846153846154,0.0,1.0,0.38461538461538464,0.056009334889148193,0.5,0.215,0.0,1.0,0.0,0.0,0.0,0.0
0.0,0.0,0.002481224226591458,0.518518518518519,0.038961038961038974,0.2727272727272727,0.0,0.0,0.6000000000000001,0.0,1.0,0.6666666666666667,0.6666666666666667,0.5,1.0,0.46153846153846156,1.0,0.75,0.3461538461538462,0.03033838973162195,0.5,0.215,0.5,0.0,0.05363658477256142,0.0,0.0,1.0
0.0,0.0,0.9948741976703064,0.5555555555555554,0.4025974025974027,0.13636363636363638,0.0,0.0,0.0,0.5,0.5,0.6666666666666667,0.6666666666666667,0.5,0.0,0.6153846153846154,0.0,1.0,0.2692307692307692,0.03733955659276546,0.5,0.215,0.0,0.0,0.053709559717830216,0.0,0.0,0.0
0.0,1.0,0.9970295497135773,0.518518518518519,0.6103896103896105,0.9090909090909091,0.0,0.6666666666666667,0.2,0.0,0.25,0.6666666666666667,1.0,0.5,0.0,0.6153846153846154,1.0,1.0,0.4615384615384615,0.05484247374562427,0.0,0.215,0.0,0.0,0.2286548285088786,0.0,0.0,0.0
1.0,0.0,0.0021783302100434193,0.518518518518519,0.42857142857142855,0.13636363636363638,0.6666666666666667,0.6666666666666667,0.4000000000000001,0.5,1.0,1.0,1.0,0.5,0.0,0.6153846153846154,1.0,1.0,0.7115384615384617,0.03733955659276546,0.5,0.215,0.5,0.0,1.0,0.0,0.0,1.0
0.0,0.0,0.0024837309356939286,0.40740740740740744,0.24675324675324678,0.2727272727272727,0.6666666666666667,0.0,0.4000000000000001,0.0,0.75,0.3333333333333333,1.0,0.5,0.5,0.8461538461538461,0.0,1.0,0.4615384615384615,0.04550758459743291,0.0,0.215,0.0,0.0,0.07805886645585015,0.0,0.0,1.0
0.0,0.0,0.0024427880203536367,0.5,0.3766233766233767,0.1818181818181818,0.6666666666666667,0.6666666666666667,0.6000000000000001,0.0,1.0,1.0,0.6666666666666667,0.5,0.0,0.6153846153846154,0.6666666666666667,0.75,0.3461538461538462,0.015169194865810968,0.5,0.215,0.5,0.0,0.053733884699586475,0.0,0.0,1.0
0.0,0.0,0.0019287037619227926,0.48148148148148184,0.5064935064935066,0.5909090909090909,0.3333333333333333,0.6666666666666667,0.6000000000000001,0.0,0.75,0.6666666666666667,0.6666666666666667,0.5,0.0,0.6153846153846154,0.6666666666666667,0.75,0.2692307692307692,0.03733955659276546,1.0,0.215,0.0,0.0,0.05363658477256142,0.0,0.0,1.0
1.0,0.0,0.002024794277517339,0.518518518518519,0.11688311688311687,0.13636363636363638,0.3333333333333333,0.0,0.0,0.5,0.5,0.6666666666666667,0.0,0.5,0.0,0.6153846153846154,1.0,0.25,0.2115384615384615,0.03850641773628938,0.5,0.215,0.0,1.0,0.07567501824373632,0.0,0.0,1.0
0.0,0.0,0.003460720808380266,0.7222222222222223,0.45454545454545453,0.48863636363636365,1.0,1.0,1.0000000000000002,0.0,0.25,1.0,0.0,0.0,1.0,0.15384615384615385,1.0,0.75,0.8269230769230771,0.1131855309218203,1.0,0.19,1.0,0.0,0.051398686450985165,0.0,0.0,1.0
1.0,0.0,0.0019769579121452774,0.22222222222222232,0.07792207792207795,0.11363636363636365,0.6666666666666667,0.6666666666666667,0.2,0.0,0.0,1.0,0.0,0.0,0.0,0.6153846153846154,1.0,1.0,0.5576923076923077,0.04434072345390898,0.5,0.215,0.5,0.0,0.12432498175626369,0.0,0.0,1.0
0.0,1.0,0.997094306365391,0.6296296296296289,0.6103896103896105,0.31818181818181823,0.6666666666666667,0.0,0.2,0.0,0.25,0.6666666666666667,1.0,0.0,0.0,0.6153846153846154,1.0,0.75,0.5192307692307692,0.05017502917152859,1.0,0.215,0.5,0.0,0.053709559717830216,0.0,0.0,0.0
1.0,0.0,0.0025244649586090157,0.518518518518519,0.5324675324675325,0.1818181818181818,0.6666666666666667,0.6666666666666667,0.6000000000000001,0.5,1.0,1.0,0.3333333333333333,0.5,0.0,0.6153846153846154,1.0,1.0,0.3269230769230769,0.023337222870478416,1.0,0.25,0.0,1.0,0.009729992702505474,0.0,0.0,0.0
0.0,0.0,0.003188116193487023,0.518518518518519,0.32467532467532473,0.13636363636363638,0.6666666666666667,0.6666666666666667,0.4000000000000001,0.0,0.75,1.0,1.0,0.5,0.0,0.6153846153846154,1.0,1.0,0.38461538461538464,0.7782963827304551,0.5,0.215,0.0,0.0,0.07567501824373632,0.0,0.0,1.0
0.0,1.0,0.9976833830044705,0.6296296296296289,1.0000000000000002,0.8636363636363636,0.0,0.0,0.0,0.0,0.75,0.0,0.6666666666666667,0.5,0.0,0.6153846153846154,0.3333333333333333,1.0,0.19230769230769235,0.0,0.5,0.215,0.5,0.0,0.17297494526879106,0.0,0.0,1.0
0.0,0.0,0.0032158988860393617,0.3888888888888893,0.27272727272727276,0.13636363636363638,0.3333333333333333,0.0,0.0,0.0,0.25,0.0,0.0,0.0,0.0,0.6153846153846154,0.0,1.0,0.23076923076923078,0.7199533255542591,0.5,0.19,1.0,0.0,0.17535879348090488,0.0,0.0,1.0
0.0,0.0,0.0023680045321300552,0.6111111111111116,0.42857142857142855,0.22727272727272727,0.6666666666666667,0.6666666666666667,0.6000000000000001,0.0,0.5,1.0,0.0,0.5,1.0,1.0,1.0,1.0,0.7884615384615385,0.06651108518086347,0.5,0.215,0.5,0.0,0.05363658477256142,0.0,0.0,0.0
1.0,0.0,0.003393039662613659,0.3888888888888893,0.14285714285714285,0.04545454545454544,0.0,0.0,0.0,0.0,0.25,0.6666666666666667,0.3333333333333333,0.5,0.0,0.6153846153846154,0.6666666666666667,1.0,0.24999999999999994,0.6732788798133023,0.0,0.09,0.0,1.0,0.0,0.0,0.0,1.0
0.0,0.0,0.0019339260725529384,1.0,0.27272727272727276,0.38636363636363635,0.6666666666666667,0.6666666666666667,0.0,0.0,0.25,0.6666666666666667,0.0,0.5,0.0,0.6153846153846154,1.0,1.0,0.5961538461538463,0.04784130688448075,1.0,0.215,0.5,0.0,0.277304792021406,0.0,0.0,0.0
1.0,0.0,0.0034377426416076495,0.48148148148148184,0.06493506493506496,0.1931818181818182,0.6666666666666667,0.0,0.0,0.0,0.75,0.6666666666666667,0.3333333333333333,0.0,0.0,0.6153846153846154,1.0,1.0,0.2692307692307692,0.7666277712952159,0.5,0.215,0.0,1.0,0.0,0.0,0.0,1.0
1.0,0.0,0.002260216040723989,0.5555555555555554,0.11688311688311687,0.09090909090909091,0.3333333333333333,0.0,0.0,0.0,0.0,0.6666666666666667,0.3333333333333333,0.5,0.0,0.6153846153846154,1.0,0.25,0.30769230769230765,0.03733955659276546,0.5,0.215,0.0,1.0,0.07567501824373632,0.0,0.0,0.0
1.0,1.0,1.0,0.5925925925925934,0.3766233766233767,0.22727272727272727,0.6666666666666667,0.0,0.0,0.0,0.5,0.6666666666666667,0.0,0.5,0.0,0.6153846153846154,1.0,1.0,0.23076923076923078,0.03033838973162195,0.5,0.215,0.0,1.0,0.0,0.0,0.0,1.0
0.0,0.0,0.0021446985295853344,0.3148148148148149,0.29220779220779225,0.31818181818181823,0.6666666666666667,0.0,0.4000000000000001,0.5,0.75,1.0,0.3333333333333333,0.5,1.0,0.6153846153846154,1.0,0.75,0.4807692307692308,0.04784130688448075,1.0,0.31000000000000005,0.5,0.0,0.29695937728046706,0.0,0.0,0.0
0.0,0.0,0.0025071268873169544,0.5370370370370363,0.09090909090909094,0.14772727272727273,0.6666666666666667,0.0,0.2,0.0,0.5,0.6666666666666667,0.6666666666666667,0.5,0.0,0.6153846153846154,0.0,1.0,0.4038461538461539,0.03733955659276546,0.5,0.43000000000000005,0.0,0.0,0.053733884699586475,0.0,0.0,0.0
1.0,0.0,0.0021127379885288733,0.518518518518519,0.16883116883116883,0.6818181818181818,0.6666666666666667,0.0,0.0,0.0,0.5,0.6666666666666667,0.0,0.5,0.0,0.6153846153846154,0.0,1.0,0.3269230769230769,0.03150525087514586,0.5,0.215,1.0,0.0,0.12663585502310873,0.0,0.0,1.0
1.0,0.0,0.002379075830665947,0.5925925925925934,0.24675324675324678,0.13636363636363638,0.3333333333333333,0.0,0.4000000000000001,0.0,0.5,0.6666666666666667,0.3333333333333333,0.0,0.0,0.6153846153846154,0.0,1.0,0.2884615384615385,0.03733955659276546,0.0,0.215,0.0,1.0,0.12464120651909512,0.0,0.0,0.0
1.0,0.0,0.0019537708529474562,0.5370370370370363,0.15584415584415584,0.11363636363636365,0.6666666666666667,0.0,0.2,0.0,0.25,0.6666666666666667,0.3333333333333333,0.5,1.0,0.676923076923077,1.0,0.75,0.4038461538461539,0.04550758459743291,1.0,0.215,0.0,1.0,0.05166626125030406,0.0,0.0,0.0
0.0,0.0,0.0033270296562487173,0.518518518518519,0.07792207792207795,0.13636363636363638,0.6666666666666667,0.0,0.0,0.0,0.5,0.6666666666666667,0.0,0.5,0.0,0.6153846153846154,0.6666666666666667,1.0,0.4615384615384615,0.661610268378063,0.5,0.215,0.0,1.0,0.0,0.0,0.0,1.0
0.0,0.0,0.001965051043908553,0.7222222222222223,0.2207792207792208,0.9318181818181818,0.3333333333333333,0.6666666666666667,0.0,0.0,0.5,0.6666666666666667,0.0,0.0,0.5,0.8461538461538461,0.0,1.0,0.30769230769230765,0.03967327887981331,0.5,0.215,0.0,0.0,0.7567501824373631,0.0,0.0,1.0
0.0,0.0,0.002108560140024765,0.3888888888888893,0.19480519480519481,0.4772727272727273,0.6666666666666667,0.6666666666666667,0.0,0.0,0.5,0.6666666666666667,0.3333333333333333,0.5,0.5,0.3846153846153847,0.6666666666666667,0.75,0.23076923076923078,0.03733955659276546,0.5,0.215,0.5,0.0,0.053733884699586475,0.0,0.0,1.0
0.0,0.0,0.0033736126670695504,0.4259259259259265,0.32467532467532473,0.13636363636363638,0.6666666666666667,0.6666666666666667,1.0000000000000002,0.0,1.0,1.0,0.0,0.5,1.0,0.6153846153846154,0.6666666666666667,0.0,0.5192307692307692,0.603267211201867,1.0,0.19,0.0,0.0,0.10231087326684506,0.0,0.0,1.0
0.0,0.0,0.002364662253326766,0.518518518518519,0.45454545454545453,0.25,0.6666666666666667,0.6666666666666667,0.6000000000000001,0.5,1.0,1.0,1.0,1.0,1.0,0.6153846153846154,1.0,0.75,0.5576923076923077,0.03850641773628938,0.5,0.215,0.0,0.0,0.05166626125030406,0.0,0.0,1.0
0.0,0.0,0.0021227648249387415,0.4259259259259265,0.5844155844155845,0.22727272727272727,0.6666666666666667,0.6666666666666667,0.4000000000000001,0.0,1.0,0.6666666666666667,0.6666666666666667,0.0,0.0,0.6153846153846154,1.0,1.0,0.8076923076923077,0.04317386231038507,1.0,0.215,0.5,0.0,0.10228654828508879,0.0,0.0,0.0
0.0,0.0,0.003373194882219141,0.518518518518519,0.29870129870129875,0.13636363636363638,0.6666666666666667,0.6666666666666667,0.0,0.0,0.5,1.0,1.0,0.5,0.0,0.6153846153846154,1.0,1.0,0.2692307692307692,0.03733955659276546,0.5,0.215,1.0,0.0,0.2705910970566772,0.0,0.0,1.0
0.0,1.0,0.9982306811585091,0.6296296296296289,0.7792207792207793,0.4772727272727273,0.0,0.6666666666666667,1.0000000000000002,0.5,1.0,0.6666666666666667,0.3333333333333333,0.0,0.0,0.6153846153846154,1.0,1.0,0.5192307692307692,0.0338389731621937,0.5,0.215,0.5,0.0,0.10233519824860132,0.0,0.0,1.0
0.0,0.0,0.0034072443475276354,0.48148148148148184,0.038961038961038974,0.09090909090909091,0.6666666666666667,0.0,0.0,0.0,0.75,0.3333333333333333,0.3333333333333333,1.0,1.0,0.15384615384615385,0.6666666666666667,1.0,0.2692307692307692,0.8366394399066511,0.5,0.09,1.0,1.0,0.07567501824373632,0.0,0.0,1.0
1.0,0.0,0.0021190047612850427,0.2777777777777777,0.12987012987012986,0.36363636363636365,0.3333333333333333,0.6666666666666667,0.4000000000000001,0.0,0.0,0.6666666666666667,0.3333333333333333,1.0,0.0,0.9230769230769232,1.0,1.0,0.2788461538461538,0.03733955659276546,0.5,0.215,0.0,1.0,0.07567501824373632,0.0,0.0,1.0
1.0,0.0,0.0019934604137365197,0.44444444444444375,0.06493506493506496,0.09090909090909091,0.0,0.0,0.0,0.0,0.0,0.0,0.0,0.5,0.0,0.6153846153846154,0.0,0.0,0.2692307692307692,0.04084014002333722,0.5,0.215,0.0,1.0,0.0,0.0,0.0,1.0
1.0,0.0,0.0022343133799985065,0.518518518518519,0.16883116883116883,0.36363636363636365,1.0,0.6666666666666667,0.0,0.0,0.25,1.0,0.6666666666666667,0.5,0.5,1.0,1.0,1.0,0.4615384615384615,0.04550758459743291,0.0,0.24,0.0,1.0,0.20189734857698857,0.0,0.0,0.0
0.0,0.0,0.0033773727307232493,0.5925925925925934,0.11688311688311687,0.04545454545454544,0.6666666666666667,0.0,0.0,0.0,0.0,0.0,0.0,0.5,0.0,0.6153846153846154,1.0,1.0,0.24999999999999994,0.7432905484247374,0.5,0.215,0.0,1.0,0.0,0.0,0.0,1.0
1.0,0.0,0.0025376251813969547,0.8518518518518521,0.31168831168831174,0.13636363636363638,0.6666666666666667,0.6666666666666667,0.8,0.0,0.25,0.6666666666666667,0.0,0.0,0.0,0.6153846153846154,1.0,0.0,0.8269230769230771,0.03733955659276546,0.5,0.215,0.5,0.0,0.20432984675261495,0.0,0.0,0.0
0.0,0.0,0.0018942365117638749,0.518518518518519,0.25974025974025977,0.09090909090909091,0.6666666666666667,1.0,0.8,0.5,0.25,0.6666666666666667,0.3333333333333333,0.5,0.0,0.6153846153846154,1.0,1.0,0.7115384615384617,0.04900816802800467,0.5,0.215,0.5,0.0,0.034054974458769156,0.0,0.0,1.0
0.0,0.0,0.0019389394907578655,0.518518518518519,0.27272727272727276,0.11363636363636365,0.6666666666666667,0.0,0.0,0.0,0.5,0.6666666666666667,0.0,0.5,0.0,0.6153846153846154,1.0,1.0,0.23076923076923078,0.03617269544924155,0.5,0.215,0.0,0.0,0.07599124300656775,0.0,0.0,1.0
1.0,0.0,0.0024989800827339287,0.5740740740740744,0.15584415584415584,0.13636363636363638,0.0,0.0,0.0,0.0,0.5,0.0,0.0,0.5,0.0,0.6153846153846154,0.0,1.0,0.3269230769230769,0.04084014002333722,0.5,0.6900000000000001,0.0,1.0,0.0,0.0,0.0,0.0
0.0,0.0,0.9953630059452874,0.5740740740740744,0.2337662337662338,0.1818181818181818,0.0,0.0,0.0,0.0,0.5,0.6666666666666667,0.0,0.5,0.0,0.6153846153846154,1.0,1.0,0.3269230769230769,0.03967327887981331,0.0,0.215,0.0,0.0,0.7567501824373631,0.0,0.0,0.0
1.0,0.0,0.993646119102523,0.44444444444444375,0.3376623376623377,0.04545454545454544,0.6666666666666667,0.0,0.0,0.5,0.75,0.6666666666666667,0.6666666666666667,0.0,1.0,0.6153846153846154,1.0,1.0,0.5192307692307692,0.04317386231038507,0.5,0.215,1.0,0.0,0.05363658477256142,0.0,0.0,1.0
1.0,1.0,0.9998955537873973,0.7592592592592595,0.3506493506493507,0.25,0.6666666666666667,0.0,0.0,0.0,0.5,0.6666666666666667,0.0,0.5,0.0,0.6153846153846154,1.0,1.0,0.0961538461538462,0.019836639439906656,0.5,0.215,0.0,1.0,0.0,0.0,0.0,1.0
0.0,0.0,0.0022877898408511232,0.518518518518519,0.11688311688311687,0.13636363636363638,0.6666666666666667,0.0,0.0,0.0,0.5,0.6666666666666667,0.0,0.5,0.0,0.6153846153846154,1.0,1.0,0.2692307692307692,0.03733955659276546,0.5,0.215,0.0,0.0,0.05166626125030406,0.0,0.0,1.0
0.0,0.0,0.0022247043284390478,0.48148148148148184,0.12987012987012986,0.31818181818181823,0.6666666666666667,0.0,0.0,0.0,0.5,0.3333333333333333,0.3333333333333333,0.5,0.0,0.6153846153846154,0.6666666666666667,1.0,0.30769230769230765,0.03850641773628938,0.0,0.52,0.0,0.0,0.20432984675261495,0.0,0.0,0.0
1.0,0.0,0.003463018625057518,0.5925925925925934,0.09740259740259744,0.09090909090909091,0.3333333333333333,0.0,0.2,0.0,0.0,0.0,0.0,0.5,0.0,0.6153846153846154,0.0,0.0,0.38461538461538464,0.6382730455075846,0.5,0.215,0.0,1.0,0.0,0.0,0.0,1.0
0.0,0.0,0.0021754057160905393,0.6481481481481479,0.32467532467532473,0.40909090909090906,0.6666666666666667,0.6666666666666667,0.4000000000000001,0.0,0.25,0.6666666666666667,0.6666666666666667,0.5,0.5,0.9230769230769232,0.6666666666666667,0.0,0.5961538461538463,0.03733955659276546,1.0,0.215,0.5,0.0,0.17297494526879106,0.0,0.0,1.0
0.0,0.0,0.0024143786505256837,0.2962962962962967,0.2337662337662338,0.13636363636363638,0.0,0.6666666666666667,0.2,0.0,0.75,0.6666666666666667,0.6666666666666667,0.0,0.0,0.6153846153846154,0.0,1.0,0.23076923076923078,0.04200700116686115,0.5,0.215,0.5,0.0,0.7567501824373631,0.0,0.0,1.0
0.0,0.0,0.0032436815785917006,0.518518518518519,0.31168831168831174,0.1818181818181818,0.6666666666666667,0.6666666666666667,0.4000000000000001,0.0,0.5,0.6666666666666667,0.0,0.5,0.0,0.6153846153846154,1.0,0.75,0.38461538461538464,0.6849474912485414,0.5,0.19,1.0,1.0,0.053733884699586475,0.0,0.0,1.0
1.0,0.0,0.003222374551220736,0.5740740740740744,0.06493506493506496,0.09090909090909091,0.0,0.0,0.0,0.0,0.25,0.0,0.0,0.5,0.0,0.6153846153846154,0.6666666666666667,0.25,0.2692307692307692,0.7432905484247374,0.5,0.215,0.0,1.0,0.0,0.0,0.0,1.0
0.0,0.0,0.0032190322724174464,0.518518518518519,0.5844155844155845,0.7045454545454546,1.0,0.0,0.6000000000000001,0.5,0.25,1.0,0.0,0.5,0.0,0.6153846153846154,1.0,1.0,0.6153846153846154,0.7199533255542591,0.5,0.215,1.0,1.0,0.0779615665288251,0.0,0.0,1.0
1.0,0.0,0.0019272415149463595,0.3333333333333339,0.27272727272727276,0.1818181818181818,0.6666666666666667,0.3333333333333333,0.6000000000000001,0.5,0.75,0.6666666666666667,0.6666666666666667,1.0,0.0,0.6153846153846154,1.0,0.75,0.4038461538461539,0.03733955659276546,1.0,0.32,1.0,0.0,0.053709559717830216,0.0,0.0,0.0
0.0,0.0,0.002279016358992497,0.3888888888888893,0.27272727272727276,0.25,1.0,0.6666666666666667,0.6000000000000001,0.0,0.75,1.0,0.6666666666666667,0.5,0.0,0.6153846153846154,0.6666666666666667,1.0,0.7115384615384617,0.04084014002333722,0.5,0.215,0.5,0.0,0.0779615665288251,0.0,0.0,1.0
0.0,0.0,0.002535118472294498,0.20370370370370416,0.45454545454545453,0.1818181818181818,0.6666666666666667,0.6666666666666667,0.4000000000000001,0.0,0.5,0.6666666666666667,0.6666666666666667,1.0,0.0,0.6153846153846154,1.0,0.75,0.5192307692307692,0.03150525087514586,1.0,0.33,0.0,0.0,0.053709559717830216,0.0,0.0,0.0
0.0,0.0,0.003371941527667899,0.3333333333333339,0.06493506493506496,0.13636363636363638,0.6666666666666667,0.0,0.0,0.0,0.5,0.6666666666666667,0.0,0.5,0.0,0.6153846153846154,1.0,0.0,0.24999999999999994,0.6849474912485414,0.0,0.09,1.0,1.0,0.14867428849428363,0.0,0.0,1.0
