0.20000000000000007,1.0,0.6000000000000001,0.0,0.0,1.0,0.0,0.25,1.0,0.0
0.4,1.0,0.4,0.0,0.0,0.5,1.0,0.5,1.0,0.0
0.4,1.0,0.4,0.0,0.0,0.5,0.0,0.25,1.0,0.0
0.8000000000000002,0.5,0.30000000000000004,0.0,0.0,0.5,1.0,0.0,1.0,0.0
0.4,1.0,0.0,0.0,0.0,0.5,1.0,0.75,1.0,0.0
0.8000000000000002,0.5,0.30000000000000004,0.0,0.0,0.5,0.0,0.25,1.0,0.0
0.6,1.0,0.5000000000000001,0.0,0.0,0.5,0.0,0.25,1.0,0.0
0.8000000000000002,0.5,0.4,0.0,0.0,0.0,0.0,0.25,1.0,0.0
0.4,1.0,1.0,0.0,0.0,0.5,0.0,0.25,1.0,0.0
0.4,1.0,0.4,0.0,0.0,0.5,1.0,0.0,1.0,0.0
0.4,1.0,0.0,0.0,0.0,1.0,0.0,1.0,1.0,0.0
0.6,0.5,0.5000000000000001,0.0,0.0,0.5,0.0,0.25,1.0,0.0
0.8000000000000002,0.0,0.20000000000000004,0.0,0.0,0.0,0.0,0.5,1.0,0.0
0.6,0.5,0.5000000000000001,0.0,0.0,1.0,0.0,0.5,1.0,0.0
0.4,1.0,0.6000000000000001,0.0,0.0,1.0,0.0,0.0,1.0,0.0
0.8000000000000002,0.0,0.6000000000000001,0.0,0.0,0.0,0.0,0.25,1.0,0.0
0.4,1.0,0.30000000000000004,0.0,0.0,0.5,0.0,0.25,1.0,0.0
0.6,1.0,0.6000000000000001,0.0,0.0,1.0,0.0,0.25,1.0,0.0
0.8000000000000002,0.5,0.6000000000000001,0.0,0.0,1.0,0.0,0.25,1.0,0.0
0.6,0.5,0.6000000000000001,0.0,0.0,0.0,1.0,0.5,1.0,0.0
0.6,0.5,0.8,0.0,0.0,0.5,0.0,0.25,1.0,0.0
0.8000000000000002,0.5,0.30000000000000004,0.0,0.0,0.5,0.0,0.25,1.0,0.0
0.20000000000000007,1.0,0.5000000000000001,0.0,0.0,0.5,1.0,0.25,1.0,0.0
0.6,1.0,0.8,0.0,0.0,0.5,0.0,0.0,1.0,0.0
0.6,1.0,0.7000000000000001,0.0,0.0,0.5,1.0,0.0,1.0,0.0
0.4,1.0,0.5000000000000001,0.0,0.0,0.5,0.0,0.0,1.0,0.0
0.6,1.0,0.4,0.0,0.0,0.0,0.0,0.25,1.0,0.0
0.8000000000000002,0.5,0.5000000000000001,0.0,0.0,1.0,1.0,0.0,1.0,0.0
0.4,1.0,0.8,0.0,0.0,0.5,1.0,0.25,1.0,0.0
0.8000000000000002,0.5,0.6000000000000001,0.0,0.0,0.5,0.0,0.25,1.0,0.0
0.6,0.5,0.8,0.0,0.0,1.0,1.0,0.0,1.0,0.0
0.6,1.0,0.30000000000000004,0.0,0.0,0.5,1.0,0.25,1.0,0.0
0.6,1.0,0.20000000000000004,0.0,0.0,1.0,0.0,0.25,1.0,0.0
0.6,0.5,0.20000000000000004,0.0,0.0,0.0,1.0,0.0,1.0,0.0
0.6,0.5,0.20000000000000004,0.0,0.0,0.0,0.0,0.0,1.0,0.0
0.20000000000000007,1.0,0.6000000000000001,0.0,0.0,0.5,0.0,0.0,1.0,0.0
0.6,0.5,0.0,0.0,0.0,0.5,0.0,1.0,1.0,0.0
0.6,0.5,0.30000000000000004,0.0,0.0,0.0,1.0,1.0,1.0,0.0
0.4,1.0,0.20000000000000004,0.0,0.0,0.5,0.0,0.25,1.0,0.0
0.4,1.0,0.6000000000000001,0.0,0.0,0.0,0.0,0.25,1.0,0.0
0.6,0.5,0.4,0.0,0.0,0.0,1.0,0.25,1.0,0.0
0.8000000000000002,0.5,0.5000000000000001,0.0,0.0,0.5,0.0,0.25,1.0,0.0
0.8000000000000002,0.5,0.1,0.0,0.0,0.0,0.0,1.0,1.0,0.0
0.4,1.0,0.20000000000000004,0.0,0.0,0.5,0.0,0.0,1.0,0.0
0.6,0.5,1.0,0.0,0.0,0.0,1.0,0.5,1.0,0.0
0.6,0.5,0.6000000000000001,0.0,0.0,0.0,0.0,0.0,1.0,0.0
0.4,1.0,0.5000000000000001,0.0,0.0,0.5,1.0,0.25,1.0,0.0
0.6,1.0,0.5000000000000001,0.0,0.0,0.0,1.0,0.0,1.0,0.0
0.4,1.0,0.4,0.0,0.0,0.0,1.0,0.5,1.0,0.0
0.4,1.0,0.4,0.0,0.0,0.0,1.0,0.25,1.0,0.0
0.6,0.0,0.30000000000000004,0.0,0.0,0.5,0.0,0.25,1.0,0.0
0.20000000000000007,1.0,0.4,0.0,0.0,0.5,0.0,0.75,1.0,0.0
0.6,1.0,0.30000000000000004,0.0,0.0,0.0,0.0,0.25,1.0,0.0
1.0,0.5,0.4,0.0,0.0,1.0,0.0,0.0,1.0,0.0
1.0,0.5,0.8,0.0,0.0,0.0,1.0,0.0,1.0,0.0
1.0,0.5,0.8,0.0,0.0,0.0,1.0,0.5,1.0,0.0
0.6,0.5,0.0,0.0,0.0,0.0,1.0,1.0,1.0,0.0
0.6,0.5,0.1,0.0,0.0,0.5,1.0,0.5,1.0,0.0
0.8000000000000002,0.5,0.6000000000000001,0.0,0.0,0.0,0.0,0.0,1.0,0.0
0.8000000000000002,0.5,0.30000000000000004,0.0,0.0,0.0,1.0,0.0,1.0,0.0
0.4,1.0,0.4,0.0,0.0,0.5,0.0,1.0,1.0,0.0
0.4,1.0,0.20000000000000004,0.0,0.0,0.0,1.0,0.75,1.0,0.0
0.6,0.5,0.0,0.0,0.0,0.0,0.0,0.25,1.0,0.0
0.0,1.0,0.7000000000000001,0.0,0.0,0.5,1.0,0.5,1.0,0.0
0.4,1.0,0.5000000000000001,0.0,0.0,0.0,0.0,0.75,1.0,0.0
0.4,1.0,0.20000000000000004,0.0,0.0,0.0,1.0,0.0,1.0,0.0
0.4,1.0,0.5000000000000001,0.0,0.0,0.0,1.0,0.75,1.0,0.0
0.6,0.5,0.4,0.0,0.0,1.0,0.0,0.0,1.0,0.0
0.6,0.5,0.7000000000000001,0.0,0.0,1.0,0.0,0.25,1.0,0.0
0.8000000000000002,0.5,1.0,0.0,0.0,0.5,0.0,0.25,1.0,0.0
0.8000000000000002,0.5,0.20000000000000004,0.0,0.0,0.0,0.0,0.25,1.0,0.0
0.4,1.0,0.5000000000000001,0.0,0.0,0.5,1.0,0.0,1.0,0.0
0.8000000000000002,0.5,0.4,0.0,0.0,0.5,0.0,0.0,1.0,0.0
0.6,1.0,0.30000000000000004,0.0,0.0,0.5,1.0,0.75,1.0,0.0
0.20000000000000007,1.0,0.1,0.0,0.0,0.5,0.0,0.75,1.0,0.0
0.6,0.5,0.20000000000000004,0.0,0.0,0.0,0.0,0.25,1.0,0.0
0.6,0.5,0.20000000000000004,0.0,0.0,0.5,0.0,0.25,1.0,0.0
0.20000000000000007,1.0,0.5000000000000001,0.0,0.0,0.0,0.0,1.0,1.0,0.0
0.6,1.0,0.5000000000000001,0.0,0.0,0.5,0.0,0.25,1.0,0.0
0.4,1.0,0.5000000000000001,0.0,0.0,0.5,1.0,1.0,1.0,0.0
0.6,0.5,0.20000000000000004,0.0,0.0,0.5,1.0,0.25,1.0,0.0
0.8000000000000002,0.5,0.20000000000000004,0.0,0.0,0.0,0.0,0.0,1.0,0.0
0.8000000000000002,0.5,0.30000000000000004,0.0,0.0,0.5,1.0,0.25,1.0,0.0
0.6,0.5,0.30000000000000004,0.0,0.0,0.5,1.0,0.25,1.0,0.0
0.4,1.0,0.4,0.0,0.0,0.0,0.0,0.75,1.0,0.0
0.6,0.5,0.7000000000000001,0.0,0.0,1.0,0.0,0.0,1.0,0.0
0.8000000000000002,0.5,0.5000000000000001,0.0,0.0,0.5,1.0,0.25,1.0,0.0
1.0,0.5,0.0,0.0,0.0,0.0,0.0,0.75,1.0,0.0
0.6,0.5,0.4,0.0,0.0,1.0,1.0,0.0,1.0,0.0
0.4,1.0,0.8,0.0,0.0,0.0,1.0,0.0,1.0,0.0
0.20000000000000007,1.0,0.0,0.0,0.0,0.5,1.0,1.0,1.0,0.0
0.6,0.5,0.4,0.0,0.0,1.0,0.0,0.0,1.0,0.0
0.6,0.5,0.5000000000000001,0.0,0.0,0.5,1.0,0.0,1.0,0.0
0.8000000000000002,0.5,0.4,0.0,0.0,0.5,1.0,0.0,1.0,0.0
0.6,1.0,0.20000000000000004,0.0,0.0,0.0,0.0,0.25,1.0,0.0
0.4,1.0,0.6000000000000001,0.0,0.0,0.5,1.0,0.75,1.0,0.0
0.8000000000000002,0.5,0.6000000000000001,0.0,0.0,0.5,0.0,0.0,1.0,0.0
0.8000000000000002,0.5,0.30000000000000004,0.0,0.0,0.5,1.0,0.0,1.0,0.0
0.4,1.0,0.6000000000000001,0.0,0.0,0.0,0.0,0.5,1.0,0.0
0.20000000000000007,1.0,0.5000000000000001,0.0,0.0,0.5,0.0,0.25,1.0,0.0
0.4,0.5,0.4,0.0,0.0,1.0,0.0,0.25,1.0,0.0
0.6,0.5,0.6000000000000001,0.0,0.0,1.0,1.0,0.25,1.0,0.0
0.6,1.0,0.5000000000000001,0.0,0.0,0.5,1.0,0.75,1.0,0.0
0.4,1.0,0.4,0.0,0.0,0.5,0.0,0.75,1.0,0.0
0.4,1.0,0.20000000000000004,0.0,0.0,0.5,1.0,0.25,1.0,0.0
0.4,1.0,0.6000000000000001,0.0,0.0,0.0,1.0,0.0,1.0,0.0
0.4,1.0,0.4,0.0,0.0,0.5,0.0,0.0,1.0,0.0
0.20000000000000007,1.0,0.8,0.0,0.0,0.5,1.0,0.5,1.0,0.0
0.4,1.0,0.6000000000000001,0.0,0.0,1.0,1.0,0.5,1.0,0.0
0.8000000000000002,0.5,0.6000000000000001,0.0,0.0,0.0,1.0,0.0,1.0,0.0
0.6,0.5,0.5000000000000001,0.0,0.0,0.0,0.0,0.25,1.0,0.0
0.6,0.5,0.30000000000000004,0.0,0.0,0.0,1.0,1.0,1.0,0.0
0.4,1.0,0.4,0.0,0.0,0.5,1.0,0.0,1.0,0.0
0.4,1.0,0.20000000000000004,0.0,0.0,0.0,1.0,0.0,1.0,0.0
0.4,1.0,0.7000000000000001,0.0,0.0,0.5,1.0,0.5,1.0,0.0
0.6,0.5,0.4,0.0,0.0,0.5,1.0,0.0,1.0,0.0
0.20000000000000007,1.0,0.30000000000000004,0.0,0.0,0.0,0.0,0.25,1.0,0.0
0.4,0.5,0.4,0.0,0.0,1.0,0.0,0.0,1.0,0.0
0.20000000000000007,1.0,0.20000000000000004,0.0,0.0,0.0,1.0,0.25,1.0,0.0
0.8000000000000002,0.5,0.30000000000000004,0.0,0.0,0.0,0.0,0.75,1.0,0.0
0.8000000000000002,0.5,0.4,0.0,0.0,0.0,0.0,0.25,1.0,0.0
0.6,0.5,0.30000000000000004,0.0,0.0,0.5,1.0,0.5,1.0,0.0
0.6,0.5,0.8,0.0,0.0,1.0,0.0,0.0,1.0,0.0
0.6,0.5,0.6000000000000001,0.0,0.0,0.0,1.0,0.25,1.0,0.0
0.8000000000000002,0.5,0.20000000000000004,0.0,0.0,0.0,1.0,0.25,1.0,0.0
1.0,0.5,0.20000000000000004,0.0,0.0,0.5,0.0,1.0,1.0,0.0
0.20000000000000007,1.0,0.6000000000000001,0.25,1.0,0.5,1.0,0.5,1.0,0.0
0.20000000000000007,1.0,0.5000000000000001,0.25,1.0,0.5,1.0,0.0,0.0,0.0
0.6,1.0,0.5000000000000001,0.0,1.0,0.5,0.0,0.0,1.0,0.0
0.4,1.0,0.7000000000000001,0.375,1.0,0.5,1.0,0.0,0.0,0.0
0.4,1.0,0.7000000000000001,0.375,1.0,0.5,1.0,0.5,0.0,0.0
0.4,1.0,0.8,0.125,1.0,1.0,1.0,0.0,0.0,0.0
0.4,1.0,0.6000000000000001,0.25,0.0,0.5,0.0,0.0,1.0,0.0
0.6,0.5,0.8,0.0,0.0,1.0,0.0,0.5,1.0,0.0
0.8000000000000002,0.5,0.6000000000000001,0.0,0.0,0.5,0.0,0.25,0.0,0.0
0.20000000000000007,1.0,0.4,0.125,0.0,0.5,1.0,1.0,1.0,0.0
0.20000000000000007,1.0,0.8,0.125,0.0,1.0,1.0,0.5,0.0,0.0
0.4,1.0,0.1,0.0,0.0,0.0,0.0,0.25,0.0,0.0
0.20000000000000007,1.0,0.8,0.0,0.0,0.5,0.0,0.25,0.0,0.0
0.4,1.0,0.6000000000000001,0.0,0.0,0.5,0.0,0.75,1.0,0.0
0.6,0.5,0.8,0.125,1.0,0.5,0.0,0.25,1.0,0.0
0.6,1.0,0.4,0.125,1.0,0.5,0.0,0.25,1.0,0.0
0.8000000000000002,0.5,0.20000000000000004,0.0,0.0,0.0,0.0,0.0,1.0,0.0
0.4,1.0,0.9,0.0,0.0,0.5,0.0,0.25,0.0,0.0
0.8000000000000002,0.5,0.9,0.25,1.0,1.0,0.0,1.0,1.0,0.0
0.4,1.0,0.5000000000000001,0.0,0.0,0.5,0.0,0.75,0.0,0.0
0.8000000000000002,0.5,1.0,0.0,0.0,0.5,1.0,0.0,0.0,0.0
0.6,1.0,0.6000000000000001,0.125,1.0,0.5,0.0,0.25,0.0,0.0
0.20000000000000007,1.0,0.4,0.0,0.0,1.0,0.0,1.0,1.0,0.0
0.6,0.0,0.6000000000000001,0.0,0.0,1.0,1.0,0.0,1.0,0.0
0.6,0.5,0.5000000000000001,0.625,1.0,1.0,1.0,0.0,1.0,0.0
0.8000000000000002,0.5,0.6000000000000001,0.125,1.0,1.0,0.0,0.25,1.0,0.0
0.6,0.5,0.7000000000000001,0.625,0.0,1.0,0.0,0.25,1.0,0.0
0.8000000000000002,0.5,0.30000000000000004,0.0,0.0,1.0,1.0,0.0,0.0,0.0
0.20000000000000007,0.0,0.30000000000000004,0.0,0.0,1.0,1.0,0.0,1.0,0.0
0.8000000000000002,0.5,0.8,0.125,0.0,0.5,1.0,0.0,0.0,0.0
0.6,0.5,0.5000000000000001,0.125,1.0,1.0,1.0,0.0,1.0,0.0
0.6,1.0,0.6000000000000001,0.0,0.0,0.0,0.0,1.0,1.0,0.0
0.6,0.5,0.6000000000000001,0.0,0.0,0.0,1.0,1.0,1.0,0.0
0.4,1.0,0.7000000000000001,0.0,0.0,0.0,0.0,0.25,1.0,0.0
0.4,1.0,0.5000000000000001,0.0,0.0,1.0,1.0,0.0,0.0,0.0
0.4,1.0,0.6000000000000001,0.125,1.0,0.5,1.0,0.25,1.0,0.0
0.8000000000000002,0.5,0.20000000000000004,0.0,0.0,0.5,1.0,0.0,0.0,0.0
0.8000000000000002,0.5,0.5000000000000001,0.125,0.0,0.0,1.0,0.0,0.0,0.0
0.8000000000000002,0.5,0.5000000000000001,0.125,0.0,0.0,1.0,0.25,0.0,0.0
0.4,1.0,0.4,0.125,0.0,0.5,1.0,0.0,1.0,0.0
0.4,1.0,0.4,0.125,0.0,0.5,1.0,0.25,1.0,0.0
0.4,0.5,0.8,0.625,1.0,0.5,1.0,0.0,0.0,0.0
0.6,1.0,0.20000000000000004,0.0,0.0,0.5,1.0,0.0,1.0,0.0
0.4,0.5,0.6000000000000001,0.0,0.0,0.5,0.0,0.0,0.0,0.0
0.20000000000000007,1.0,0.4,0.125,1.0,0.5,1.0,0.0,0.0,0.0
0.20000000000000007,1.0,0.30000000000000004,0.0,0.0,0.0,0.0,0.25,1.0,0.0
0.8000000000000002,0.5,0.6000000000000001,0.25,1.0,0.5,1.0,0.5,1.0,0.0
0.6,0.5,0.4,0.125,1.0,0.5,1.0,0.0,1.0,0.0
0.6,1.0,0.5000000000000001,0.125,1.0,0.5,0.0,0.25,0.0,0.0
0.4,1.0,0.6000000000000001,0.0,0.0,0.5,1.0,0.5,0.0,0.0
0.4,0.5,0.5000000000000001,0.0,0.0,0.5,0.0,0.25,1.0,0.0
0.8000000000000002,0.5,0.20000000000000004,0.0,0.0,0.5,0.0,0.25,1.0,0.0
0.6,1.0,0.5000000000000001,0.125,0.0,0.5,1.0,0.0,0.0,0.0
0.4,1.0,0.4,0.0,0.0,1.0,1.0,0.25,0.0,0.0
0.4,1.0,0.7000000000000001,0.0,1.0,1.0,1.0,0.0,0.0,0.0
0.4,1.0,0.7000000000000001,0.0,1.0,1.0,1.0,0.25,0.0,0.0
0.4,1.0,0.5000000000000001,0.0,0.0,0.0,1.0,0.25,0.0,0.0
0.6,0.5,0.6000000000000001,0.375,0.0,1.0,0.0,0.0,0.0,0.0
0.6,0.5,0.6000000000000001,0.375,0.0,1.0,0.0,0.25,0.0,0.0
0.4,1.0,0.4,0.25,0.0,0.5,1.0,0.25,0.0,0.0
0.6,0.5,0.5000000000000001,0.0,0.0,0.0,0.0,0.75,1.0,0.0
0.8000000000000002,0.5,0.30000000000000004,0.0,0.0,0.5,0.0,0.0,0.0,0.0
0.4,1.0,0.20000000000000004,0.0,0.0,0.5,1.0,0.0,1.0,0.0
0.6,0.5,0.4,0.0,1.0,0.5,1.0,0.0,1.0,0.0
0.4,1.0,0.30000000000000004,0.5,0.0,1.0,1.0,0.75,0.0,0.0
0.4,1.0,0.5000000000000001,0.0,0.0,0.5,0.0,0.0,0.0,0.0
0.6,0.5,0.6000000000000001,0.25,1.0,0.5,0.0,0.25,1.0,0.0
0.20000000000000007,1.0,0.20000000000000004,0.0,0.0,0.5,0.0,0.75,1.0,0.0
0.6,1.0,1.0,0.0,1.0,0.5,1.0,0.0,0.0,0.0
0.6,0.5,0.7000000000000001,0.0,0.0,0.5,0.0,0.0,1.0,0.0
0.6,1.0,0.20000000000000004,0.125,0.0,0.0,1.0,0.0,1.0,0.0
0.4,1.0,0.20000000000000004,0.0,0.0,0.5,0.0,0.25,0.0,0.0
0.6,0.5,0.30000000000000004,0.0,1.0,0.5,0.0,1.0,0.0,0.0
0.6,1.0,0.5000000000000001,0.0,0.0,0.0,0.0,0.25,1.0,0.0
0.8000000000000002,0.5,0.5000000000000001,0.0,0.0,1.0,1.0,0.25,1.0,0.0
0.6,1.0,0.30000000000000004,0.0,0.0,0.5,0.0,0.25,1.0,1.0
0.4,1.0,0.8,0.0,0.0,0.0,0.0,0.25,1.0,1.0
0.6,0.5,0.7000000000000001,0.0,0.0,0.5,0.0,0.25,1.0,1.0
0.6,1.0,0.5000000000000001,0.0,0.0,0.5,0.0,0.5,1.0,1.0
0.20000000000000007,1.0,0.0,0.0,0.0,0.5,1.0,1.0,1.0,1.0
0.6,0.5,0.6000000000000001,0.0,0.0,1.0,0.0,0.25,1.0,1.0
0.6,1.0,0.5000000000000001,0.0,0.0,0.5,0.0,0.5,1.0,1.0
0.6,1.0,0.6000000000000001,0.0,0.0,1.0,0.0,0.5,1.0,1.0
0.4,1.0,0.7000000000000001,0.0,0.0,0.0,1.0,0.0,1.0,1.0
0.4,1.0,0.4,0.0,0.0,0.5,0.0,0.25,1.0,1.0
0.6,0.5,0.4,0.0,0.0,0.5,1.0,1.0,1.0,1.0
0.4,1.0,0.6000000000000001,0.0,0.0,1.0,1.0,0.5,1.0,1.0
0.6,1.0,0.5000000000000001,0.0,0.0,0.0,1.0,0.0,1.0,1.0
0.8000000000000002,0.5,0.8,0.0,0.0,0.5,1.0,0.25,1.0,1.0
0.4,0.5,0.4,0.0,0.0,0.5,1.0,0.0,1.0,1.0
0.6,0.5,0.4,0.0,0.0,0.5,0.0,0.0,1.0,1.0
0.4,1.0,0.30000000000000004,0.0,0.0,0.5,0.0,0.0,1.0,1.0
0.8000000000000002,0.5,0.6000000000000001,0.0,0.0,1.0,1.0,1.0,1.0,1.0
0.20000000000000007,1.0,0.30000000000000004,0.0,0.0,0.0,1.0,0.25,1.0,1.0
0.4,1.0,0.5000000000000001,0.0,0.0,1.0,0.0,0.5,1.0,1.0
0.20000000000000007,1.0,0.6000000000000001,0.0,0.0,0.0,1.0,0.0,1.0,1.0
0.8000000000000002,0.5,0.5000000000000001,0.0,0.0,1.0,0.0,0.75,0.0,1.0
0.8000000000000002,0.5,0.4,0.0,0.0,1.0,1.0,0.25,1.0,1.0
0.20000000000000007,1.0,0.5000000000000001,0.125,1.0,1.0,0.0,0.25,0.0,1.0
0.4,0.5,0.4,0.125,0.0,1.0,1.0,0.25,0.0,1.0
0.4,1.0,0.6000000000000001,0.625,1.0,1.0,0.0,0.25,1.0,1.0
0.6,1.0,0.6000000000000001,0.0,0.0,1.0,1.0,0.0,0.0,1.0
0.8000000000000002,0.5,0.8,0.125,1.0,1.0,1.0,0.25,1.0,1.0
0.8000000000000002,0.5,0.9,0.0,0.0,0.0,1.0,0.5,0.0,1.0
0.6,1.0,1.0,0.375,1.0,0.5,1.0,0.0,1.0,1.0
0.4,1.0,0.6000000000000001,0.125,0.0,0.5,1.0,0.0,1.0,1.0
0.20000000000000007,1.0,0.6000000000000001,0.125,0.0,1.0,1.0,0.0,0.0,1.0
1.0,0.5,0.30000000000000004,0.375,0.0,0.0,0.0,0.25,0.0,1.0
0.8000000000000002,0.5,0.6000000000000001,0.0,0.0,1.0,1.0,0.0,0.0,1.0
0.6,1.0,0.5000000000000001,0.125,1.0,1.0,0.0,0.25,0.0,1.0
0.4,1.0,0.5000000000000001,0.0,0.0,0.5,1.0,0.25,1.0,1.0
0.4,1.0,0.5000000000000001,0.0,0.0,0.5,1.0,0.25,1.0,1.0
0.20000000000000007,1.0,0.7000000000000001,0.0,0.0,1.0,0.0,0.25,1.0,1.0
0.4,1.0,0.4,0.125,1.0,0.5,1.0,0.5,0.0,1.0
0.8000000000000002,0.5,0.4,0.125,0.0,0.5,0.0,0.25,0.0,1.0
0.4,1.0,0.30000000000000004,0.625,1.0,1.0,0.0,0.25,1.0,1.0
0.6,0.5,0.5000000000000001,0.25,0.0,1.0,0.0,0.25,0.0,1.0
0.6,0.5,0.4,0.125,1.0,1.0,1.0,0.5,1.0,1.0
0.4,1.0,0.6000000000000001,0.5,1.0,1.0,0.0,0.0,0.0,1.0
0.20000000000000007,1.0,0.6000000000000001,0.375,0.0,0.5,1.0,0.0,0.0,1.0
0.20000000000000007,1.0,0.30000000000000004,0.25,1.0,1.0,0.0,0.25,0.0,1.0
0.6,0.5,0.6000000000000001,0.375,1.0,1.0,0.0,0.75,0.0,1.0
0.8000000000000002,0.5,0.7000000000000001,0.25,1.0,1.0,0.0,0.25,1.0,1.0
0.20000000000000007,1.0,0.4,0.125,1.0,0.5,0.0,0.25,1.0,1.0
0.4,1.0,0.5000000000000001,0.0,0.0,1.0,0.0,0.0,1.0,1.0
0.4,1.0,1.0,0.0,0.0,0.5,1.0,0.25,0.0,1.0
0.20000000000000007,1.0,0.8,0.0,0.0,0.0,0.0,0.0,1.0,1.0
0.8000000000000002,0.5,1.0,0.0,0.0,1.0,1.0,0.0,1.0,1.0
0.4,1.0,0.6000000000000001,0.0,1.0,1.0,1.0,0.5,1.0,1.0
0.4,1.0,0.6000000000000001,0.25,1.0,1.0,1.0,0.0,1.0,1.0
0.4,1.0,0.6000000000000001,0.0,0.0,0.0,0.0,0.25,0.0,1.0
0.4,1.0,0.4,0.125,1.0,0.5,0.0,0.25,0.0,1.0
0.6,0.5,0.6000000000000001,0.25,1.0,0.5,0.0,0.75,0.0,1.0
0.6,0.5,0.6000000000000001,0.125,0.0,1.0,1.0,0.0,1.0,1.0
0.8000000000000002,0.5,0.5000000000000001,0.125,0.0,0.5,1.0,0.5,1.0,1.0
0.4,0.5,0.5000000000000001,0.5,1.0,1.0,0.0,0.75,0.0,1.0
0.8000000000000002,0.5,0.5000000000000001,0.0,0.0,1.0,0.0,0.0,1.0,1.0
0.6,0.0,0.4,0.0,0.0,0.0,0.0,0.0,1.0,1.0
0.6,0.0,0.4,0.0,0.0,0.0,0.0,0.25,1.0,1.0
0.20000000000000007,1.0,0.7000000000000001,0.375,1.0,1.0,0.0,0.25,1.0,1.0
0.4,1.0,0.6000000000000001,0.125,1.0,0.5,0.0,0.5,1.0,1.0
0.8000000000000002,0.5,0.4,1.0,1.0,1.0,0.0,0.25,0.0,1.0
0.20000000000000007,1.0,0.7000000000000001,0.0,0.0,1.0,0.0,0.25,1.0,1.0
0.4,1.0,0.5000000000000001,0.0,0.0,0.5,0.0,0.25,0.0,1.0
0.6,0.5,0.6000000000000001,0.25,1.0,1.0,0.0,0.75,1.0,1.0
0.6,1.0,0.5000000000000001,0.0,0.0,1.0,1.0,0.25,0.0,1.0
0.4,1.0,0.30000000000000004,0.0,1.0,1.0,1.0,0.0,1.0,1.0
0.8000000000000002,0.5,0.6000000000000001,0.0,1.0,0.5,1.0,0.5,0.0,1.0
0.8000000000000002,0.5,0.6000000000000001,0.125,1.0,0.5,0.0,1.0,0.0,1.0
0.4,1.0,0.5000000000000001,0.375,1.0,1.0,1.0,0.0,1.0,1.0
0.20000000000000007,1.0,0.5000000000000001,0.25,1.0,1.0,0.0,0.75,0.0,1.0
0.8000000000000002,0.5,0.20000000000000004,0.25,1.0,1.0,0.0,0.0,0.0,1.0
0.6,1.0,0.7000000000000001,0.625,1.0,1.0,1.0,0.5,1.0,1.0
0.6,0.5,0.8,0.25,1.0,1.0,0.0,0.25,0.0,1.0
0.6,0.5,0.8,0.25,1.0,1.0,0.0,0.25,0.0,1.0
0.20000000000000007,1.0,0.6000000000000001,0.0,0.0,0.5,0.0,0.0,1.0,1.0
0.20000000000000007,1.0,0.4,0.0,0.0,1.0,0.0,0.0,0.0,1.0
0.8000000000000002,0.5,0.4,0.0,0.0,0.0,1.0,0.0,1.0,1.0
0.4,0.5,0.6000000000000001,0.125,0.0,1.0,0.0,0.25,1.0,1.0
0.6,0.5,0.6000000000000001,0.125,0.0,1.0,0.0,0.25,1.0,1.0
