[
{"title": ["Parasite"], "director": ["Bong Joon-ho"], "starring": ["Song Kang-ho", "Lee Sun-kyun", "Cho Yeo-jeong", "Choi Woo-shik", "Park So-dam", "Lee Jung-eun", "Jang Hye-jin"], "releasedate": ["21\u00a0May\u00a02019", " (", ")", "30\u00a0May\u00a02019", " (South Korea)"], "runtime": ["132 minutes"]}
][
{"title": ["Parasite"], "director": ["Bong Joon-ho"], "starring": ["Song Kang-ho", "Lee Sun-kyun", "Cho Yeo-jeong", "Choi Woo-shik", "Park So-dam", "Lee Jung-eun", "Jang Hye-jin"], "releasedate": ["21\u00a0May\u00a02019", " (", ")", "30\u00a0May\u00a02019", " (South Korea)"], "runtime": ["132 minutes"]}
][
{"title": ["Parasite"], "director": ["Bong Joon-ho"], "starring": ["Song Kang-ho", "Lee Sun-kyun", "Cho Yeo-jeong", "Choi Woo-shik", "Park So-dam", "Lee Jung-eun", "Jang Hye-jin"], "releasedate": ["21\u00a0May\u00a02019", " (", ")", "30\u00a0May\u00a02019", " (South Korea)"], "runtime": ["132 minutes"]}
]