title,director,starring,releasedate,runtime
Parasite,Bong Joon-ho,"Song Kang-ho,Lee Sun-kyun,Cho Yeo-jeong,Choi Woo-shik,Park So-dam,Lee Jung-eun,Jang Hye-jin","21 May 2019, (,),30 May 2019, (South Korea)",132 minutes
title,director,starring,releasedate,runtime
Parasite,Bong Joon-ho,"Song Kang-ho,Lee Sun-kyun,Cho Yeo-jeong,Choi Woo-shik,Park So-dam,Lee Jung-eun,Jang Hye-jin","21 May 2019, (,),30 May 2019, (South Korea)",132 minutes
